%!PS-Adobe-3.0 EPSF-3.0
%%Creator: MATLAB, The Mathworks, Inc.
%%Title: U:\drafts\HSCC08\figures\pZplotEX2c.eps
%%CreationDate: 10/03/2007  14:08:43
%%DocumentNeededFonts: Helvetica
%%DocumentProcessColors: Cyan Magenta Yellow Black
%%LanguageLevel: 2
%%Pages: 1
%%BoundingBox:   126   278   466   562
%%EndComments

%%BeginProlog
% MathWorks dictionary
/MathWorks 160 dict begin
% definition operators
/bdef {bind def} bind def
/ldef {load def} bind def
/xdef {exch def} bdef
/xstore {exch store} bdef
% operator abbreviations
/c  /clip ldef
/cc /concat ldef
/cp /closepath ldef
/gr /grestore ldef
/gs /gsave ldef
/mt /moveto ldef
/np /newpath ldef
/cm /currentmatrix ldef
/sm /setmatrix ldef
/rm /rmoveto ldef
/rl /rlineto ldef
/s {show newpath} bdef
/sc {setcmykcolor} bdef
/sr /setrgbcolor ldef
/sg /setgray ldef
/w /setlinewidth ldef
/j /setlinejoin ldef
/cap /setlinecap ldef
/rc {rectclip} bdef
/rf {rectfill} bdef
% page state control
/pgsv () def
/bpage {/pgsv save def} bdef
/epage {pgsv restore} bdef
/bplot /gsave ldef
/eplot {stroke grestore} bdef
% orientation switch
/portraitMode 0 def /landscapeMode 1 def /rotateMode 2 def
% coordinate system mappings
/dpi2point 0 def
% font control
/FontSize 0 def
/FMS {/FontSize xstore findfont [FontSize 0 0 FontSize neg 0 0]
  makefont setfont} bdef
/ISOLatin1Encoding where {pop /WindowsLatin1Encoding 256 array bdef
ISOLatin1Encoding WindowsLatin1Encoding copy pop
/.notdef/.notdef/quotesinglbase/florin/quotedblbase/ellipsis/dagger
/daggerdbl/circumflex/perthousand/Scaron/guilsinglleft/OE/.notdef/.notdef
/.notdef/.notdef/quoteleft/quoteright/quotedblleft/quotedblright/bullet
/endash/emdash/tilde/trademark/scaron/guilsinglright/oe/.notdef/.notdef
/Ydieresis WindowsLatin1Encoding 128 32 getinterval astore pop}
{/WindowsLatin1Encoding StandardEncoding bdef} ifelse
/reencode {exch dup where {pop load} {pop StandardEncoding} ifelse
  exch dup 3 1 roll findfont dup length dict begin
  { 1 index /FID ne {def}{pop pop} ifelse } forall
  /Encoding exch def currentdict end definefont pop} bdef
/isroman {findfont /CharStrings get /Agrave known} bdef
/FMSR {3 1 roll 1 index dup isroman {reencode} {pop pop} ifelse
  exch FMS} bdef
/csm {1 dpi2point div -1 dpi2point div scale neg translate
 dup landscapeMode eq {pop -90 rotate}
  {rotateMode eq {90 rotate} if} ifelse} bdef
% line types: solid, dotted, dashed, dotdash
/SO { [] 0 setdash } bdef
/DO { [.5 dpi2point mul 4 dpi2point mul] 0 setdash } bdef
/DA { [6 dpi2point mul] 0 setdash } bdef
/DD { [.5 dpi2point mul 4 dpi2point mul 6 dpi2point mul 4
  dpi2point mul] 0 setdash } bdef
% macros for lines and objects
/L {lineto stroke} bdef
/MP {3 1 roll moveto 1 sub {rlineto} repeat} bdef
/AP {{rlineto} repeat} bdef
/PDlw -1 def
/W {/PDlw currentlinewidth def setlinewidth} def
/PP {closepath eofill} bdef
/DP {closepath stroke} bdef
/MR {4 -2 roll moveto dup  0 exch rlineto exch 0 rlineto
  neg 0 exch rlineto closepath} bdef
/FR {MR stroke} bdef
/PR {MR fill} bdef
/L1i {{currentfile picstr readhexstring pop} image} bdef
/tMatrix matrix def
/MakeOval {newpath tMatrix currentmatrix pop translate scale
0 0 1 0 360 arc tMatrix setmatrix} bdef
/FO {MakeOval stroke} bdef
/PO {MakeOval fill} bdef
/PD {currentlinewidth 2 div 0 360 arc fill
   PDlw -1 eq not {PDlw w /PDlw -1 def} if} def
/FA {newpath tMatrix currentmatrix pop translate scale
  0 0 1 5 -2 roll arc tMatrix setmatrix stroke} bdef
/PA {newpath tMatrix currentmatrix pop	translate 0 0 moveto scale
  0 0 1 5 -2 roll arc closepath tMatrix setmatrix fill} bdef
/FAn {newpath tMatrix currentmatrix pop translate scale
  0 0 1 5 -2 roll arcn tMatrix setmatrix stroke} bdef
/PAn {newpath tMatrix currentmatrix pop translate 0 0 moveto scale
  0 0 1 5 -2 roll arcn closepath tMatrix setmatrix fill} bdef
/vradius 0 def /hradius 0 def /lry 0 def
/lrx 0 def /uly 0 def /ulx 0 def /rad 0 def
/MRR {/vradius xdef /hradius xdef /lry xdef /lrx xdef /uly xdef
  /ulx xdef newpath tMatrix currentmatrix pop ulx hradius add uly
  vradius add translate hradius vradius scale 0 0 1 180 270 arc 
  tMatrix setmatrix lrx hradius sub uly vradius add translate
  hradius vradius scale 0 0 1 270 360 arc tMatrix setmatrix
  lrx hradius sub lry vradius sub translate hradius vradius scale
  0 0 1 0 90 arc tMatrix setmatrix ulx hradius add lry vradius sub
  translate hradius vradius scale 0 0 1 90 180 arc tMatrix setmatrix
  closepath} bdef
/FRR {MRR stroke } bdef
/PRR {MRR fill } bdef
/MlrRR {/lry xdef /lrx xdef /uly xdef /ulx xdef /rad lry uly sub 2 div def
  newpath tMatrix currentmatrix pop ulx rad add uly rad add translate
  rad rad scale 0 0 1 90 270 arc tMatrix setmatrix lrx rad sub lry rad
  sub translate rad rad scale 0 0 1 270 90 arc tMatrix setmatrix
  closepath} bdef
/FlrRR {MlrRR stroke } bdef
/PlrRR {MlrRR fill } bdef
/MtbRR {/lry xdef /lrx xdef /uly xdef /ulx xdef /rad lrx ulx sub 2 div def
  newpath tMatrix currentmatrix pop ulx rad add uly rad add translate
  rad rad scale 0 0 1 180 360 arc tMatrix setmatrix lrx rad sub lry rad
  sub translate rad rad scale 0 0 1 0 180 arc tMatrix setmatrix
  closepath} bdef
/FtbRR {MtbRR stroke } bdef
/PtbRR {MtbRR fill } bdef
/stri 6 array def /dtri 6 array def
/smat 6 array def /dmat 6 array def
/tmat1 6 array def /tmat2 6 array def /dif 3 array def
/asub {/ind2 exch def /ind1 exch def dup dup
  ind1 get exch ind2 get sub exch } bdef
/tri_to_matrix {
  2 0 asub 3 1 asub 4 0 asub 5 1 asub
  dup 0 get exch 1 get 7 -1 roll astore } bdef
/compute_transform {
  dmat dtri tri_to_matrix tmat1 invertmatrix 
  smat stri tri_to_matrix tmat2 concatmatrix } bdef
/ds {stri astore pop} bdef
/dt {dtri astore pop} bdef
/db {2 copy /cols xdef /rows xdef mul dup 3 mul string
  currentfile 
  3 index 0 eq {/ASCIIHexDecode filter}
  {/ASCII85Decode filter 3 index 2 eq {/RunLengthDecode filter} if }
  ifelse exch readstring pop
  dup 0 3 index getinterval /rbmap xdef
  dup 2 index dup getinterval /gbmap xdef
  1 index dup 2 mul exch getinterval /bbmap xdef pop pop}bdef
/it {gs np dtri aload pop moveto lineto lineto cp c
  cols rows 8 compute_transform 
  rbmap gbmap bbmap true 3 colorimage gr}bdef
/il {newpath moveto lineto stroke}bdef
currentdict end def
%%EndProlog

%%BeginSetup
MathWorks begin

0 cap

end
%%EndSetup

%%Page: 1 1
%%BeginPageSetup
%%PageBoundingBox:   126   278   466   562
MathWorks begin
bpage
%%EndPageSetup

%%BeginObject: obj1
bplot

/dpi2point 12 def
portraitMode 1512 6744 csm

    0     0  4089  3404 rc
22 dict begin %Colortable dictionary
/c0 { 0.000000 0.000000 0.000000 sr} bdef
/c1 { 1.000000 1.000000 1.000000 sr} bdef
/c2 { 0.900000 0.000000 0.000000 sr} bdef
/c3 { 0.000000 0.820000 0.000000 sr} bdef
/c4 { 0.000000 0.000000 0.800000 sr} bdef
/c5 { 0.910000 0.820000 0.320000 sr} bdef
/c6 { 1.000000 0.260000 0.820000 sr} bdef
/c7 { 0.000000 0.820000 0.820000 sr} bdef
c0
1 j
1 sg
   0    0 4090 3405 rf
18 w
0 1533 -1376 -702 0 -1534 3701 2491 4 MP
PP
1376 703 0 1533 -1376 -702 0 -1534 3701 2491 5 MP stroke
1376 703 1793 -539 -1375 -703 1907 3030 4 MP
PP
-1794 539 1376 703 1793 -539 -1375 -703 1907 3030 5 MP stroke
0 1533 1793 -538 0 -1534 532 2327 4 MP
PP
-1793 539 0 1533 1793 -538 0 -1534 532 2327 5 MP stroke
12 w
DO
0 sg
1907 3030 mt  532 2327 L
 532 2327 mt  532  793 L
2356 2895 mt  980 2192 L
 980 2192 mt  980  659 L
2804 2760 mt 1428 2058 L
1428 2058 mt 1428  524 L
3252 2625 mt 1876 1923 L
1876 1923 mt 1876  389 L
3701 2491 mt 2325 1788 L
2325 1788 mt 2325  255 L
1907 3030 mt 3701 2491 L
3701 2491 mt 3701  957 L
1563 2854 mt 3357 2315 L
3357 2315 mt 3357  781 L
1219 2678 mt 3013 2139 L
3013 2139 mt 3013  606 L
 875 2503 mt 2669 1964 L
2669 1964 mt 2669  430 L
 532 2327 mt 2325 1788 L
2325 1788 mt 2325  255 L
 532 2327 mt 2325 1788 L
2325 1788 mt 3701 2491 L
 532 1688 mt 2325 1149 L
2325 1149 mt 3701 1852 L
 532 1049 mt 2325  510 L
2325  510 mt 3701 1213 L
SO
18 w
1907 3030 mt 3701 2491 L
1907 3030 mt  532 2327 L
 532 2327 mt  532  793 L
1907 3030 mt 1949 3051 L
%%IncludeResource: font Helvetica
/Helvetica /WindowsLatin1Encoding 180 FMSR

1980 3234 mt 
(-4) s
2356 2895 mt 2397 2916 L
2428 3099 mt 
(-2) s
2804 2760 mt 2846 2781 L
2876 2964 mt 
(0) s
3252 2625 mt 3294 2647 L
3325 2829 mt 
(2) s
3701 2491 mt 3742 2512 L
3773 2695 mt 
(4) s
1907 3030 mt 1863 3043 L
1624 3220 mt 
(-4) s
1563 2854 mt 1519 2867 L
1281 3044 mt 
(-2) s
1219 2678 mt 1175 2692 L
1042 2869 mt 
(0) s
 875 2503 mt  831 2516 L
 698 2693 mt 
(2) s
 532 2327 mt  487 2341 L
 354 2517 mt 
(4) s
 532 2327 mt  490 2306 L
 359 2356 mt 
(0) s
 532 1688 mt  490 1667 L
 109 1717 mt 
(0.05) s
 532 1049 mt  490 1028 L
 209 1078 mt 
(0.1) s
gs 532 255 3170 2776 rc
1 sg
-65 -42 85 -17 3457 2484 3 MP
PP
/c8 { 0.000000 0.000000 1.000000 sr} bdef
c8
3457 2484 mt 3542 2467 L
3542 2467 mt 3477 2425 L
1 sg
-65 -41 85 -11 3392 2436 3 MP
PP
c8
3392 2436 mt 3477 2425 L
3477 2425 mt 3412 2384 L
1 sg
85 -11 -65 -48 3457 2484 3 MP
PP
c8
3457 2484 mt 3392 2436 L
3392 2436 mt 3477 2425 L
1 sg
-65 -48 85 -18 3372 2502 3 MP
PP
c8
3372 2502 mt 3457 2484 L
3457 2484 mt 3392 2436 L
1 sg
85 -2 -65 -50 3392 2436 3 MP
PP
c8
3392 2436 mt 3327 2386 L
3327 2386 mt 3412 2384 L
1 sg
-65 -39 85 -2 3327 2386 3 MP
PP
c8
3327 2386 mt 3412 2384 L
3412 2384 mt 3347 2345 L
1 sg
-65 -50 85 -9 3307 2445 3 MP
PP
c8
3307 2445 mt 3392 2436 L
3392 2436 mt 3327 2386 L
1 sg
85 -9 -65 -57 3372 2502 3 MP
PP
c8
3372 2502 mt 3307 2445 L
3307 2445 mt 3392 2436 L
1 sg
-65 -57 85 -20 3287 2522 3 MP
PP
c8
3287 2522 mt 3372 2502 L
3372 2502 mt 3307 2445 L
1 sg
-66 -34 85 7 3262 2338 3 MP
PP
c8
3262 2338 mt 3347 2345 L
3347 2345 mt 3281 2311 L
1 sg
85 7 -65 -48 3327 2386 3 MP
PP
c8
3327 2386 mt 3262 2338 L
3262 2338 mt 3347 2345 L
1 sg
85 5 -65 -64 3307 2445 3 MP
PP
c8
3307 2445 mt 3242 2381 L
3242 2381 mt 3327 2386 L
1 sg
-65 -48 85 5 3242 2381 3 MP
PP
c8
3242 2381 mt 3327 2386 L
3327 2386 mt 3262 2338 L
1 sg
-65 -64 85 -11 3222 2456 3 MP
PP
c8
3222 2456 mt 3307 2445 L
3307 2445 mt 3242 2381 L
1 sg
85 -11 -65 -66 3287 2522 3 MP
PP
c8
3287 2522 mt 3222 2456 L
3222 2456 mt 3307 2445 L
1 sg
-65 -66 85 -24 3202 2546 3 MP
PP
c8
3202 2546 mt 3287 2522 L
3287 2522 mt 3222 2456 L
1 sg
85 15 -66 -42 3262 2338 3 MP
PP
c8
3262 2338 mt 3196 2296 L
3196 2296 mt 3281 2311 L
1 sg
-65 -30 85 15 3196 2296 3 MP
PP
c8
3196 2296 mt 3281 2311 L
3281 2311 mt 3216 2281 L
1 sg
85 21 -65 -64 3242 2381 3 MP
PP
c8
3242 2381 mt 3177 2317 L
3177 2317 mt 3262 2338 L
1 sg
-66 -42 85 21 3177 2317 3 MP
PP
c8
3177 2317 mt 3262 2338 L
3262 2338 mt 3196 2296 L
1 sg
85 5 -65 -80 3222 2456 3 MP
PP
c8
3222 2456 mt 3157 2376 L
3157 2376 mt 3242 2381 L
1 sg
-65 -64 85 5 3157 2376 3 MP
PP
c8
3157 2376 mt 3242 2381 L
3242 2381 mt 3177 2317 L
1 sg
-65 -80 85 -17 3137 2473 3 MP
PP
c8
3137 2473 mt 3222 2456 L
3222 2456 mt 3157 2376 L
1 sg
85 -17 -65 -73 3202 2546 3 MP
PP
c8
3202 2546 mt 3137 2473 L
3137 2473 mt 3222 2456 L
1 sg
85 17 -65 -32 3196 2296 3 MP
PP
c8
3196 2296 mt 3131 2264 L
3131 2264 mt 3216 2281 L
1 sg
-65 -27 85 17 3131 2264 3 MP
PP
c8
3131 2264 mt 3216 2281 L
3216 2281 mt 3151 2254 L
1 sg
-65 -73 85 -29 3117 2575 3 MP
PP
c8
3117 2575 mt 3202 2546 L
3202 2546 mt 3137 2473 L
1 sg
85 36 -66 -57 3177 2317 3 MP
PP
c8
3177 2317 mt 3111 2260 L
3111 2260 mt 3196 2296 L
1 sg
-65 -32 85 36 3111 2260 3 MP
PP
c8
3111 2260 mt 3196 2296 L
3196 2296 mt 3131 2264 L
1 sg
-66 -57 85 30 3092 2287 3 MP
PP
c8
3092 2287 mt 3177 2317 L
3177 2317 mt 3111 2260 L
1 sg
85 30 -65 -89 3157 2376 3 MP
PP
c8
3157 2376 mt 3092 2287 L
3092 2287 mt 3177 2317 L
1 sg
85 -1 -65 -96 3137 2473 3 MP
PP
c8
3137 2473 mt 3072 2377 L
3072 2377 mt 3157 2376 L
1 sg
-65 -89 85 -1 3072 2377 3 MP
PP
c8
3072 2377 mt 3157 2376 L
3157 2376 mt 3092 2287 L
1 sg
85 13 -65 -23 3131 2264 3 MP
PP
c8
3131 2264 mt 3066 2241 L
3066 2241 mt 3151 2254 L
1 sg
-65 -25 85 13 3066 2241 3 MP
PP
c8
3066 2241 mt 3151 2254 L
3151 2254 mt 3086 2229 L
1 sg
85 -26 -65 -76 3117 2575 3 MP
PP
c8
3117 2575 mt 3052 2499 L
3052 2499 mt 3137 2473 L
1 sg
-65 -96 85 -26 3052 2499 3 MP
PP
c8
3052 2499 mt 3137 2473 L
3137 2473 mt 3072 2377 L
1 sg
-65 -26 85 6 3001 2223 3 MP
PP
c8
3001 2223 mt 3086 2229 L
3086 2229 mt 3021 2203 L
1 sg
85 6 -65 -18 3066 2241 3 MP
PP
c8
3066 2241 mt 3001 2223 L
3001 2223 mt 3086 2229 L
1 sg
-65 -23 85 47 3046 2217 3 MP
PP
c8
3046 2217 mt 3131 2264 L
3131 2264 mt 3066 2241 L
1 sg
85 47 -65 -43 3111 2260 3 MP
PP
c8
3111 2260 mt 3046 2217 L
3046 2217 mt 3131 2264 L
1 sg
-65 -76 85 -32 3032 2607 3 MP
PP
c8
3032 2607 mt 3117 2575 L
3117 2575 mt 3052 2499 L
1 sg
85 -3 -65 -17 3001 2223 3 MP
PP
c8
3001 2223 mt 2936 2206 L
2936 2206 mt 3021 2203 L
1 sg
-66 -27 85 -3 2936 2206 3 MP
PP
c8
2936 2206 mt 3021 2203 L
3021 2203 mt 2955 2176 L
1 sg
-65 -24 85 80 2961 2137 3 MP
PP
c8
2961 2137 mt 3046 2217 L
3046 2217 mt 2981 2193 L
1 sg
85 80 -66 -66 3027 2203 3 MP
PP
c8
3027 2203 mt 2961 2137 L
2961 2137 mt 3046 2217 L
1 sg
-65 -43 84 57 3027 2203 3 MP
PP
c8
3027 2203 mt 3111 2260 L
3111 2260 mt 3046 2217 L
1 sg
85 48 -65 -24 3046 2217 3 MP
PP
c8
3046 2217 mt 2981 2193 L
2981 2193 mt 3066 2241 L
1 sg
-65 -18 85 48 2981 2193 3 MP
PP
c8
2981 2193 mt 3066 2241 L
3066 2241 mt 3001 2223 L
1 sg
84 57 -65 -84 3092 2287 3 MP
PP
c8
3092 2287 mt 3027 2203 L
3027 2203 mt 3111 2260 L
1 sg
85 26 -65 -116 3072 2377 3 MP
PP
c8
3072 2377 mt 3007 2261 L
3007 2261 mt 3092 2287 L
1 sg
-65 -84 85 26 3007 2261 3 MP
PP
c8
3007 2261 mt 3092 2287 L
3092 2287 mt 3027 2203 L
1 sg
85 -17 -65 -105 3052 2499 3 MP
PP
c8
3052 2499 mt 2987 2394 L
2987 2394 mt 3072 2377 L
1 sg
-65 -116 85 -17 2987 2394 3 MP
PP
c8
2987 2394 mt 3072 2377 L
3072 2377 mt 3007 2261 L
1 sg
85 -36 -65 -72 3032 2607 3 MP
PP
c8
3032 2607 mt 2967 2535 L
2967 2535 mt 3052 2499 L
1 sg
-65 -105 85 -36 2967 2535 3 MP
PP
c8
2967 2535 mt 3052 2499 L
3052 2499 mt 2987 2394 L
1 sg
-65 -72 85 -34 2947 2641 3 MP
PP
c8
2947 2641 mt 3032 2607 L
3032 2607 mt 2967 2535 L
1 sg
85 93 -65 -37 2961 2137 3 MP
PP
c8
2961 2137 mt 2896 2100 L
2896 2100 mt 2981 2193 L
1 sg
-66 -66 85 64 2942 2139 3 MP
PP
c8
2942 2139 mt 3027 2203 L
3027 2203 mt 2961 2137 L
1 sg
-65 -30 84 -11 2871 2187 3 MP
PP
c8
2871 2187 mt 2955 2176 L
2955 2176 mt 2890 2146 L
1 sg
84 -11 -65 -19 2936 2206 3 MP
PP
c8
2936 2206 mt 2871 2187 L
2871 2187 mt 2955 2176 L
1 sg
-65 -9 85 93 2896 2100 3 MP
PP
c8
2896 2100 mt 2981 2193 L
2981 2193 mt 2916 2184 L
1 sg
-65 -17 85 39 2916 2184 3 MP
PP
c8
2916 2184 mt 3001 2223 L
3001 2223 mt 2936 2206 L
1 sg
85 39 -65 -9 2981 2193 3 MP
PP
c8
2981 2193 mt 2916 2184 L
2916 2184 mt 3001 2223 L
1 sg
85 64 -65 -122 3007 2261 3 MP
PP
c8
3007 2261 mt 2942 2139 L
2942 2139 mt 3027 2203 L
1 sg
-66 -23 85 8 2786 2179 3 MP
PP
c8
2786 2179 mt 2871 2187 L
2871 2187 mt 2805 2164 L
1 sg
85 8 -65 -3 2851 2182 3 MP
PP
c8
2851 2182 mt 2786 2179 L
2786 2179 mt 2871 2187 L
1 sg
85 -18 -66 -23 2871 2187 3 MP
PP
c8
2871 2187 mt 2805 2164 L
2805 2164 mt 2890 2146 L
1 sg
-65 -19 85 24 2851 2182 3 MP
PP
c8
2851 2182 mt 2936 2206 L
2936 2206 mt 2871 2187 L
1 sg
85 24 -65 -2 2916 2184 3 MP
PP
c8
2916 2184 mt 2851 2182 L
2851 2182 mt 2936 2206 L
1 sg
-65 -122 85 7 2922 2254 3 MP
PP
c8
2922 2254 mt 3007 2261 L
3007 2261 mt 2942 2139 L
1 sg
85 7 -65 -140 2987 2394 3 MP
PP
c8
2987 2394 mt 2922 2254 L
2922 2254 mt 3007 2261 L
1 sg
85 -34 -65 -107 2967 2535 3 MP
PP
c8
2967 2535 mt 2902 2428 L
2902 2428 mt 2987 2394 L
1 sg
-65 -140 85 -34 2902 2428 3 MP
PP
c8
2902 2428 mt 2987 2394 L
2987 2394 mt 2922 2254 L
1 sg
85 -41 -65 -65 2947 2641 3 MP
PP
c8
2947 2641 mt 2882 2576 L
2882 2576 mt 2967 2535 L
1 sg
-65 -107 85 -41 2882 2576 3 MP
PP
c8
2882 2576 mt 2967 2535 L
2967 2535 mt 2902 2428 L
1 sg
-65 -37 85 105 2876 2032 3 MP
PP
c8
2876 2032 mt 2961 2137 L
2961 2137 mt 2896 2100 L
1 sg
85 105 -66 -107 2942 2139 3 MP
PP
c8
2942 2139 mt 2876 2032 L
2876 2032 mt 2961 2137 L
1 sg
-65 -65 84 -33 2863 2674 3 MP
PP
c8
2863 2674 mt 2947 2641 L
2947 2641 mt 2882 2576 L
1 sg
-65 -31 85 -18 2805 2164 3 MP
PP
c8
2805 2164 mt 2890 2146 L
2890 2146 mt 2825 2115 L
1 sg
-65 -6 85 137 2811 1963 3 MP
PP
c8
2811 1963 mt 2896 2100 L
2896 2100 mt 2831 2094 L
1 sg
-65 -2 85 90 2831 2094 3 MP
PP
c8
2831 2094 mt 2916 2184 L
2916 2184 mt 2851 2182 L
1 sg
85 90 -65 -6 2896 2100 3 MP
PP
c8
2896 2100 mt 2831 2094 L
2831 2094 mt 2916 2184 L
1 sg
85 48 -65 -163 2922 2254 3 MP
PP
c8
2922 2254 mt 2857 2091 L
2857 2091 mt 2942 2139 L
1 sg
85 137 -65 -69 2876 2032 3 MP
PP
c8
2876 2032 mt 2811 1963 L
2811 1963 mt 2896 2100 L
1 sg
-66 -107 85 48 2857 2091 3 MP
PP
c8
2857 2091 mt 2942 2139 L
2942 2139 mt 2876 2032 L
1 sg
-65 -27 85 -5 2720 2169 3 MP
PP
c8
2720 2169 mt 2805 2164 L
2805 2164 mt 2740 2137 L
1 sg
85 -5 -66 -10 2786 2179 3 MP
PP
c8
2786 2179 mt 2720 2169 L
2720 2169 mt 2805 2164 L
1 sg
85 -22 -65 -27 2805 2164 3 MP
PP
c8
2805 2164 mt 2740 2137 L
2740 2137 mt 2825 2115 L
1 sg
-65 -33 85 -22 2740 2137 3 MP
PP
c8
2740 2137 mt 2825 2115 L
2825 2115 mt 2760 2082 L
1 sg
-65 -3 85 72 2766 2110 3 MP
PP
c8
2766 2110 mt 2851 2182 L
2851 2182 mt 2786 2179 L
1 sg
85 72 -65 16 2831 2094 3 MP
PP
c8
2831 2094 mt 2766 2110 L
2766 2110 mt 2851 2182 L
1 sg
-65 -163 85 -22 2837 2276 3 MP
PP
c8
2837 2276 mt 2922 2254 L
2922 2254 mt 2857 2091 L
1 sg
85 -22 -65 -152 2902 2428 3 MP
PP
c8
2902 2428 mt 2837 2276 L
2837 2276 mt 2922 2254 L
1 sg
85 -50 -65 -98 2882 2576 3 MP
PP
c8
2882 2576 mt 2817 2478 L
2817 2478 mt 2902 2428 L
1 sg
-65 -152 85 -50 2817 2478 3 MP
PP
c8
2817 2478 mt 2902 2428 L
2902 2428 mt 2837 2276 L
1 sg
-65 -98 85 -42 2797 2618 3 MP
PP
c8
2797 2618 mt 2882 2576 L
2882 2576 mt 2817 2478 L
1 sg
85 -42 -66 -56 2863 2674 3 MP
PP
c8
2863 2674 mt 2797 2618 L
2797 2618 mt 2882 2576 L
1 sg
-65 -18 85 158 2726 1805 3 MP
PP
c8
2726 1805 mt 2811 1963 L
2811 1963 mt 2746 1945 L
1 sg
85 158 -65 -124 2791 1929 3 MP
PP
c8
2791 1929 mt 2726 1805 L
2726 1805 mt 2811 1963 L
1 sg
-65 -69 85 103 2791 1929 3 MP
PP
c8
2791 1929 mt 2876 2032 L
2876 2032 mt 2811 1963 L
1 sg
85 149 -65 -18 2811 1963 3 MP
PP
c8
2811 1963 mt 2746 1945 L
2746 1945 mt 2831 2094 L
1 sg
85 103 -66 -162 2857 2091 3 MP
PP
c8
2857 2091 mt 2791 1929 L
2791 1929 mt 2876 2032 L
1 sg
-66 -56 85 -31 2778 2705 3 MP
PP
c8
2778 2705 mt 2863 2674 L
2863 2674 mt 2797 2618 L
1 sg
-65 16 85 149 2746 1945 3 MP
PP
c8
2746 1945 mt 2831 2094 L
2831 2094 mt 2766 2110 L
1 sg
85 10 -65 -195 2837 2276 3 MP
PP
c8
2837 2276 mt 2772 2081 L
2772 2081 mt 2857 2091 L
1 sg
-66 -162 85 10 2772 2081 3 MP
PP
c8
2772 2081 mt 2857 2091 L
2857 2091 mt 2791 1929 L
1 sg
85 -53 -65 -149 2817 2478 3 MP
PP
c8
2817 2478 mt 2752 2329 L
2752 2329 mt 2837 2276 L
1 sg
-65 -31 85 -14 2655 2151 3 MP
PP
c8
2655 2151 mt 2740 2137 L
2740 2137 mt 2675 2106 L
1 sg
85 -14 -65 -18 2720 2169 3 MP
PP
c8
2720 2169 mt 2655 2151 L
2655 2151 mt 2740 2137 L
1 sg
-66 -10 85 47 2701 2132 3 MP
PP
c8
2701 2132 mt 2786 2179 L
2786 2179 mt 2720 2169 L
1 sg
85 -24 -65 -31 2740 2137 3 MP
PP
c8
2740 2137 mt 2675 2106 L
2675 2106 mt 2760 2082 L
1 sg
85 47 -65 22 2766 2110 3 MP
PP
c8
2766 2110 mt 2701 2132 L
2701 2132 mt 2786 2179 L
1 sg
-65 -195 85 -53 2752 2329 3 MP
PP
c8
2752 2329 mt 2837 2276 L
2837 2276 mt 2772 2081 L
1 sg
85 -57 -65 -83 2797 2618 3 MP
PP
c8
2797 2618 mt 2732 2535 L
2732 2535 mt 2817 2478 L
1 sg
-65 -149 85 -57 2732 2535 3 MP
PP
c8
2732 2535 mt 2817 2478 L
2817 2478 mt 2752 2329 L
1 sg
85 -40 -66 -47 2778 2705 3 MP
PP
c8
2778 2705 mt 2712 2658 L
2712 2658 mt 2797 2618 L
1 sg
-65 -83 85 -40 2712 2658 3 MP
PP
c8
2712 2658 mt 2797 2618 L
2797 2618 mt 2732 2535 L
1 sg
-65 28 85 196 2661 1749 3 MP
PP
c8
2661 1749 mt 2746 1945 L
2746 1945 mt 2681 1973 L
1 sg
85 196 -65 -56 2726 1805 3 MP
PP
c8
2726 1805 mt 2661 1749 L
2661 1749 mt 2746 1945 L
1 sg
-65 -32 85 -24 2675 2106 3 MP
PP
c8
2675 2106 mt 2760 2082 L
2760 2082 mt 2695 2050 L
1 sg
85 137 -65 28 2746 1945 3 MP
PP
c8
2746 1945 mt 2681 1973 L
2681 1973 mt 2766 2110 L
1 sg
84 65 -65 -217 2772 2081 3 MP
PP
c8
2772 2081 mt 2707 1864 L
2707 1864 mt 2791 1929 L
1 sg
-65 -124 84 65 2707 1864 3 MP
PP
c8
2707 1864 mt 2791 1929 L
2791 1929 mt 2726 1805 L
1 sg
-66 -47 85 -29 2693 2734 3 MP
PP
c8
2693 2734 mt 2778 2705 L
2778 2705 mt 2712 2658 L
1 sg
85 -26 -65 -33 2610 2075 3 MP
PP
c8
2610 2075 mt 2545 2042 L
2545 2042 mt 2630 2016 L
1 sg
-65 -24 85 1 2570 2150 3 MP
PP
c8
2570 2150 mt 2655 2151 L
2655 2151 mt 2590 2127 L
1 sg
-65 -31 85 -21 2590 2127 3 MP
PP
c8
2590 2127 mt 2675 2106 L
2675 2106 mt 2610 2075 L
1 sg
85 -21 -65 -24 2655 2151 3 MP
PP
c8
2655 2151 mt 2590 2127 L
2590 2127 mt 2675 2106 L
1 sg
85 -25 -65 -31 2675 2106 3 MP
PP
c8
2675 2106 mt 2610 2075 L
2610 2075 mt 2695 2050 L
1 sg
-65 -34 85 -25 2610 2075 3 MP
PP
c8
2610 2075 mt 2695 2050 L
2695 2050 mt 2630 2016 L
1 sg
-65 16 85 106 2616 2026 3 MP
PP
c8
2616 2026 mt 2701 2132 L
2701 2132 mt 2636 2148 L
1 sg
-66 -33 85 -26 2545 2042 3 MP
PP
c8
2545 2042 mt 2630 2016 L
2630 2016 mt 2564 1983 L
1 sg
85 106 -65 53 2681 1973 3 MP
PP
c8
2681 1973 mt 2616 2026 L
2616 2026 mt 2701 2132 L
1 sg
85 1 -66 2 2636 2148 3 MP
PP
c8
2636 2148 mt 2570 2150 L
2570 2150 mt 2655 2151 L
1 sg
-65 -18 84 21 2636 2148 3 MP
PP
c8
2636 2148 mt 2720 2169 L
2720 2169 mt 2655 2151 L
1 sg
84 21 -65 16 2701 2132 3 MP
PP
c8
2701 2132 mt 2636 2148 L
2636 2148 mt 2720 2169 L
1 sg
-65 22 85 137 2681 1973 3 MP
PP
c8
2681 1973 mt 2766 2110 L
2766 2110 mt 2701 2132 L
1 sg
85 -41 -65 -207 2752 2329 3 MP
PP
c8
2752 2329 mt 2687 2122 L
2687 2122 mt 2772 2081 L
1 sg
-65 -217 85 -41 2687 2122 3 MP
PP
c8
2687 2122 mt 2772 2081 L
2772 2081 mt 2707 1864 L
1 sg
-65 -207 85 -75 2667 2404 3 MP
PP
c8
2667 2404 mt 2752 2329 L
2752 2329 mt 2687 2122 L
1 sg
85 -75 -65 -131 2732 2535 3 MP
PP
c8
2732 2535 mt 2667 2404 L
2667 2404 mt 2752 2329 L
1 sg
-65 -131 85 -55 2647 2590 3 MP
PP
c8
2647 2590 mt 2732 2535 L
2732 2535 mt 2667 2404 L
1 sg
85 -55 -65 -68 2712 2658 3 MP
PP
c8
2712 2658 mt 2647 2590 L
2647 2590 mt 2732 2535 L
1 sg
-65 -56 85 136 2641 1669 3 MP
PP
c8
2641 1669 mt 2726 1805 L
2726 1805 mt 2661 1749 L
1 sg
85 136 -66 -195 2707 1864 3 MP
PP
c8
2707 1864 mt 2641 1669 L
2641 1669 mt 2726 1805 L
1 sg
-65 -68 84 -35 2628 2693 3 MP
PP
c8
2628 2693 mt 2712 2658 L
2712 2658 mt 2647 2590 L
1 sg
84 -35 -65 -41 2693 2734 3 MP
PP
c8
2693 2734 mt 2628 2693 L
2628 2693 mt 2712 2658 L
1 sg
85 205 -65 19 2661 1749 3 MP
PP
c8
2661 1749 mt 2596 1768 L
2596 1768 mt 2681 1973 L
1 sg
-65 53 85 205 2596 1768 3 MP
PP
c8
2596 1768 mt 2681 1973 L
2681 1973 mt 2616 2026 L
1 sg
85 -2 -65 -256 2687 2122 3 MP
PP
c8
2687 2122 mt 2622 1866 L
2622 1866 mt 2707 1864 L
1 sg
85 204 -65 -124 2641 1669 3 MP
PP
c8
2641 1669 mt 2576 1545 L
2576 1545 mt 2661 1749 L
1 sg
-65 19 85 204 2576 1545 3 MP
PP
c8
2576 1545 mt 2661 1749 L
2661 1749 mt 2596 1768 L
1 sg
-66 -195 85 -2 2622 1866 3 MP
PP
c8
2622 1866 mt 2707 1864 L
2707 1864 mt 2641 1669 L
1 sg
-65 -41 85 -28 2608 2762 3 MP
PP
c8
2608 2762 mt 2693 2734 L
2693 2734 mt 2628 2693 L
1 sg
-65 -33 85 -23 2525 2098 3 MP
PP
c8
2525 2098 mt 2610 2075 L
2610 2075 mt 2545 2042 L
1 sg
85 -23 -65 -29 2590 2127 3 MP
PP
c8
2590 2127 mt 2525 2098 L
2525 2098 mt 2610 2075 L
1 sg
84 -26 -65 -33 2545 2042 3 MP
PP
c8
2545 2042 mt 2480 2009 L
2480 2009 mt 2564 1983 L
1 sg
-65 -33 84 -26 2480 2009 3 MP
PP
c8
2480 2009 mt 2564 1983 L
2564 1983 mt 2499 1950 L
1 sg
-65 54 85 181 2531 1845 3 MP
PP
c8
2531 1845 mt 2616 2026 L
2616 2026 mt 2551 2080 L
1 sg
85 181 -65 77 2596 1768 3 MP
PP
c8
2596 1768 mt 2531 1845 L
2531 1845 mt 2616 2026 L
1 sg
85 68 -65 54 2616 2026 3 MP
PP
c8
2616 2026 mt 2551 2080 L
2551 2080 mt 2636 2148 L
1 sg
85 -12 -65 -11 2570 2150 3 MP
PP
c8
2570 2150 mt 2505 2139 L
2505 2139 mt 2590 2127 L
1 sg
-65 -29 85 -12 2505 2139 3 MP
PP
c8
2505 2139 mt 2590 2127 L
2590 2127 mt 2525 2098 L
1 sg
-66 2 85 68 2551 2080 3 MP
PP
c8
2551 2080 mt 2636 2148 L
2636 2148 mt 2570 2150 L
1 sg
-65 -256 85 -86 2602 2208 3 MP
PP
c8
2602 2208 mt 2687 2122 L
2687 2122 mt 2622 1866 L
1 sg
85 -86 -65 -196 2667 2404 3 MP
PP
c8
2667 2404 mt 2602 2208 L
2602 2208 mt 2687 2122 L
1 sg
85 -81 -65 -105 2647 2590 3 MP
PP
c8
2647 2590 mt 2582 2485 L
2582 2485 mt 2667 2404 L
1 sg
-65 -196 85 -81 2582 2485 3 MP
PP
c8
2582 2485 mt 2667 2404 L
2667 2404 mt 2602 2208 L
1 sg
-65 -105 85 -50 2562 2640 3 MP
PP
c8
2562 2640 mt 2647 2590 L
2647 2590 mt 2582 2485 L
1 sg
85 -50 -66 -53 2628 2693 3 MP
PP
c8
2628 2693 mt 2562 2640 L
2562 2640 mt 2647 2590 L
1 sg
85 246 -65 -23 2576 1545 3 MP
PP
c8
2576 1545 mt 2511 1522 L
2511 1522 mt 2596 1768 L
1 sg
85 65 -66 -262 2622 1866 3 MP
PP
c8
2622 1866 mt 2556 1604 L
2556 1604 mt 2641 1669 L
1 sg
-65 -124 85 65 2556 1604 3 MP
PP
c8
2556 1604 mt 2641 1669 L
2641 1669 mt 2576 1545 L
1 sg
85 -32 -65 -37 2608 2762 3 MP
PP
c8
2608 2762 mt 2543 2725 L
2543 2725 mt 2628 2693 L
1 sg
-66 -53 85 -32 2543 2725 3 MP
PP
c8
2543 2725 mt 2628 2693 L
2628 2693 mt 2562 2640 L
1 sg
-65 -33 85 -25 2414 1975 3 MP
PP
c8
2414 1975 mt 2499 1950 L
2499 1950 mt 2434 1917 L
1 sg
85 -25 -66 -34 2480 2009 3 MP
PP
c8
2480 2009 mt 2414 1975 L
2414 1975 mt 2499 1950 L
1 sg
-65 -33 85 -25 2460 2067 3 MP
PP
c8
2460 2067 mt 2545 2042 L
2545 2042 mt 2480 2009 L
1 sg
85 -25 -65 -31 2525 2098 3 MP
PP
c8
2525 2098 mt 2460 2067 L
2460 2067 mt 2545 2042 L
1 sg
85 135 -65 100 2531 1845 3 MP
PP
c8
2531 1845 mt 2466 1945 L
2466 1945 mt 2551 2080 L
1 sg
85 -79 -65 -263 2602 2208 3 MP
PP
c8
2602 2208 mt 2537 1945 L
2537 1945 mt 2622 1866 L
1 sg
-65 77 85 246 2511 1522 3 MP
PP
c8
2511 1522 mt 2596 1768 L
2596 1768 mt 2531 1845 L
1 sg
-66 -262 85 -79 2537 1945 3 MP
PP
c8
2537 1945 mt 2622 1866 L
2622 1866 mt 2556 1604 L
1 sg
-65 -37 85 -26 2523 2788 3 MP
PP
c8
2523 2788 mt 2608 2762 L
2608 2762 mt 2543 2725 L
1 sg
85 -112 -65 -165 2582 2485 3 MP
PP
c8
2582 2485 mt 2517 2320 L
2517 2320 mt 2602 2208 L
1 sg
85 -25 -65 -33 2460 2067 3 MP
PP
c8
2460 2067 mt 2395 2034 L
2395 2034 mt 2480 2009 L
1 sg
-66 -34 85 -25 2395 2034 3 MP
PP
c8
2395 2034 mt 2480 2009 L
2480 2009 mt 2414 1975 L
1 sg
-65 -31 85 -20 2440 2118 3 MP
PP
c8
2440 2118 mt 2525 2098 L
2525 2098 mt 2460 2067 L
1 sg
85 -20 -65 -21 2505 2139 3 MP
PP
c8
2505 2139 mt 2440 2118 L
2440 2118 mt 2525 2098 L
1 sg
-66 38 85 135 2466 1945 3 MP
PP
c8
2466 1945 mt 2551 2080 L
2551 2080 mt 2485 2118 L
1 sg
-65 -11 85 32 2485 2118 3 MP
PP
c8
2485 2118 mt 2570 2150 L
2570 2150 mt 2505 2139 L
1 sg
85 32 -66 38 2551 2080 3 MP
PP
c8
2551 2080 mt 2485 2118 L
2485 2118 mt 2570 2150 L
1 sg
-65 -263 85 -112 2517 2320 3 MP
PP
c8
2517 2320 mt 2602 2208 L
2602 2208 mt 2537 1945 L
1 sg
85 -74 -65 -81 2562 2640 3 MP
PP
c8
2562 2640 mt 2497 2559 L
2497 2559 mt 2582 2485 L
1 sg
-65 -165 85 -74 2497 2559 3 MP
PP
c8
2497 2559 mt 2582 2485 L
2582 2485 mt 2517 2320 L
1 sg
-65 -23 85 151 2491 1394 3 MP
PP
c8
2491 1394 mt 2576 1545 L
2576 1545 mt 2511 1522 L
1 sg
85 151 -65 -210 2556 1604 3 MP
PP
c8
2556 1604 mt 2491 1394 L
2491 1394 mt 2576 1545 L
1 sg
85 -41 -66 -44 2543 2725 3 MP
PP
c8
2543 2725 mt 2477 2681 L
2477 2681 mt 2562 2640 L
1 sg
-65 -81 85 -41 2477 2681 3 MP
PP
c8
2477 2681 mt 2562 2640 L
2562 2640 mt 2497 2559 L
1 sg
-65 75 85 228 2426 1294 3 MP
PP
c8
2426 1294 mt 2511 1522 L
2511 1522 mt 2446 1597 L
1 sg
85 228 -65 -100 2491 1394 3 MP
PP
c8
2491 1394 mt 2426 1294 L
2426 1294 mt 2511 1522 L
1 sg
85 248 -65 75 2511 1522 3 MP
PP
c8
2511 1522 mt 2446 1597 L
2446 1597 mt 2531 1845 L
1 sg
-65 -210 84 -36 2472 1640 3 MP
PP
c8
2472 1640 mt 2556 1604 L
2556 1604 mt 2491 1394 L
1 sg
-65 100 85 248 2446 1597 3 MP
PP
c8
2446 1597 mt 2531 1845 L
2531 1845 mt 2466 1945 L
1 sg
84 -36 -65 -305 2537 1945 3 MP
PP
c8
2537 1945 mt 2472 1640 L
2472 1640 mt 2556 1604 L
1 sg
-66 -44 85 -28 2458 2753 3 MP
PP
c8
2458 2753 mt 2543 2725 L
2543 2725 mt 2477 2681 L
1 sg
85 -28 -65 -35 2523 2788 3 MP
PP
c8
2523 2788 mt 2458 2753 L
2458 2753 mt 2543 2725 L
1 sg
85 -23 -65 -28 2440 2118 3 MP
PP
c8
2440 2118 mt 2375 2090 L
2375 2090 mt 2460 2067 L
1 sg
-65 -33 85 -23 2375 2090 3 MP
PP
c8
2375 2090 mt 2460 2067 L
2460 2067 mt 2395 2034 L
1 sg
85 -26 -66 -33 2395 2034 3 MP
PP
c8
2395 2034 mt 2329 2001 L
2329 2001 mt 2414 1975 L
1 sg
-65 -33 85 -26 2329 2001 3 MP
PP
c8
2329 2001 mt 2414 1975 L
2414 1975 mt 2349 1942 L
1 sg
-65 -34 85 -25 2349 1942 3 MP
PP
c8
2349 1942 mt 2434 1917 L
2434 1917 mt 2369 1883 L
1 sg
85 -25 -65 -33 2414 1975 3 MP
PP
c8
2414 1975 mt 2349 1942 L
2349 1942 mt 2434 1917 L
1 sg
-66 89 85 211 2381 1734 3 MP
PP
c8
2381 1734 mt 2466 1945 L
2466 1945 mt 2400 2034 L
1 sg
85 211 -65 137 2446 1597 3 MP
PP
c8
2446 1597 mt 2381 1734 L
2381 1734 mt 2466 1945 L
1 sg
85 84 -66 89 2466 1945 3 MP
PP
c8
2466 1945 mt 2400 2034 L
2400 2034 mt 2485 2118 L
1 sg
-65 -305 85 -135 2452 2080 3 MP
PP
c8
2452 2080 mt 2537 1945 L
2537 1945 mt 2472 1640 L
1 sg
85 -10 -65 -5 2420 2133 3 MP
PP
c8
2420 2133 mt 2355 2128 L
2355 2128 mt 2440 2118 L
1 sg
-65 -28 85 -10 2355 2128 3 MP
PP
c8
2355 2128 mt 2440 2118 L
2440 2118 mt 2375 2090 L
1 sg
-65 -21 85 6 2420 2133 3 MP
PP
c8
2420 2133 mt 2505 2139 L
2505 2139 mt 2440 2118 L
1 sg
-65 15 85 84 2400 2034 3 MP
PP
c8
2400 2034 mt 2485 2118 L
2485 2118 mt 2420 2133 L
1 sg
85 6 -65 15 2485 2118 3 MP
PP
c8
2485 2118 mt 2420 2133 L
2420 2133 mt 2505 2139 L
1 sg
85 -135 -65 -240 2517 2320 3 MP
PP
c8
2517 2320 mt 2452 2080 L
2452 2080 mt 2537 1945 L
1 sg
-65 -35 85 -26 2438 2814 3 MP
PP
c8
2438 2814 mt 2523 2788 L
2523 2788 mt 2458 2753 L
1 sg
-65 -240 85 -113 2432 2433 3 MP
PP
c8
2432 2433 mt 2517 2320 L
2517 2320 mt 2452 2080 L
1 sg
85 -113 -65 -126 2497 2559 3 MP
PP
c8
2497 2559 mt 2432 2433 L
2432 2433 mt 2517 2320 L
1 sg
-65 -126 85 -62 2412 2621 3 MP
PP
c8
2412 2621 mt 2497 2559 L
2497 2559 mt 2432 2433 L
1 sg
85 -62 -65 -60 2477 2681 3 MP
PP
c8
2477 2681 mt 2412 2621 L
2412 2621 mt 2497 2559 L
1 sg
85 270 -65 33 2426 1294 3 MP
PP
c8
2426 1294 mt 2361 1327 L
2361 1327 mt 2446 1597 L
1 sg
-65 -100 85 41 2406 1353 3 MP
PP
c8
2406 1353 mt 2491 1394 L
2491 1394 mt 2426 1294 L
1 sg
85 41 -66 -287 2472 1640 3 MP
PP
c8
2472 1640 mt 2406 1353 L
2406 1353 mt 2491 1394 L
1 sg
-65 -60 85 -34 2392 2715 3 MP
PP
c8
2392 2715 mt 2477 2681 L
2477 2681 mt 2412 2621 L
1 sg
85 -34 -66 -38 2458 2753 3 MP
PP
c8
2458 2753 mt 2392 2715 L
2392 2715 mt 2477 2681 L
1 sg
-65 137 85 270 2361 1327 3 MP
PP
c8
2361 1327 mt 2446 1597 L
2446 1597 mt 2381 1734 L
1 sg
-66 -287 85 -134 2387 1774 3 MP
PP
c8
2387 1774 mt 2472 1640 L
2472 1640 mt 2406 1353 L
1 sg
85 -134 -65 -306 2452 2080 3 MP
PP
c8
2452 2080 mt 2387 1774 L
2387 1774 mt 2472 1640 L
1 sg
-66 -38 85 -27 2373 2780 3 MP
PP
c8
2373 2780 mt 2458 2753 L
2458 2753 mt 2392 2715 L
1 sg
85 -27 -65 -34 2438 2814 3 MP
PP
c8
2438 2814 mt 2373 2780 L
2373 2780 mt 2458 2753 L
1 sg
85 -159 -65 -194 2432 2433 3 MP
PP
c8
2432 2433 mt 2367 2239 L
2367 2239 mt 2452 2080 L
1 sg
85 -19 -65 -19 2355 2128 3 MP
PP
c8
2355 2128 mt 2290 2109 L
2290 2109 mt 2375 2090 L
1 sg
-65 -31 85 -19 2290 2109 3 MP
PP
c8
2290 2109 mt 2375 2090 L
2375 2090 mt 2310 2059 L
1 sg
-66 -33 85 -25 2310 2059 3 MP
PP
c8
2310 2059 mt 2395 2034 L
2395 2034 mt 2329 2001 L
1 sg
85 -25 -65 -31 2375 2090 3 MP
PP
c8
2375 2090 mt 2310 2059 L
2310 2059 mt 2395 2034 L
1 sg
85 -25 -66 -33 2310 2059 3 MP
PP
c8
2310 2059 mt 2244 2026 L
2244 2026 mt 2329 2001 L
1 sg
-65 -33 85 -25 2244 2026 3 MP
PP
c8
2244 2026 mt 2329 2001 L
2329 2001 mt 2264 1968 L
1 sg
85 -26 -65 -33 2329 2001 3 MP
PP
c8
2329 2001 mt 2264 1968 L
2264 1968 mt 2349 1942 L
1 sg
-65 -33 85 -26 2264 1968 3 MP
PP
c8
2264 1968 mt 2349 1942 L
2349 1942 mt 2284 1909 L
1 sg
-65 -33 85 -26 2284 1909 3 MP
PP
c8
2284 1909 mt 2369 1883 L
2369 1883 mt 2304 1850 L
1 sg
85 -26 -65 -33 2349 1942 3 MP
PP
c8
2349 1942 mt 2284 1909 L
2284 1909 mt 2369 1883 L
1 sg
-65 60 84 151 2316 1883 3 MP
PP
c8
2316 1883 mt 2400 2034 L
2400 2034 mt 2335 2094 L
1 sg
84 151 -65 149 2381 1734 3 MP
PP
c8
2381 1734 mt 2316 1883 L
2316 1883 mt 2400 2034 L
1 sg
-65 -5 85 39 2335 2094 3 MP
PP
c8
2335 2094 mt 2420 2133 L
2420 2133 mt 2355 2128 L
1 sg
85 39 -65 60 2400 2034 3 MP
PP
c8
2400 2034 mt 2335 2094 L
2335 2094 mt 2420 2133 L
1 sg
-65 -306 85 -159 2367 2239 3 MP
PP
c8
2367 2239 mt 2452 2080 L
2452 2080 mt 2387 1774 L
1 sg
-65 -34 85 -26 2353 2840 3 MP
PP
c8
2353 2840 mt 2438 2814 L
2438 2814 mt 2373 2780 L
1 sg
85 -97 -65 -91 2412 2621 3 MP
PP
c8
2412 2621 mt 2347 2530 L
2347 2530 mt 2432 2433 L
1 sg
-65 -194 85 -97 2347 2530 3 MP
PP
c8
2347 2530 mt 2432 2433 L
2432 2433 mt 2367 2239 L
1 sg
-65 33 85 136 2341 1158 3 MP
PP
c8
2341 1158 mt 2426 1294 L
2426 1294 mt 2361 1327 L
1 sg
85 136 -65 -195 2406 1353 3 MP
PP
c8
2406 1353 mt 2341 1158 L
2341 1158 mt 2426 1294 L
1 sg
-65 -91 85 -48 2327 2669 3 MP
PP
c8
2327 2669 mt 2412 2621 L
2412 2621 mt 2347 2530 L
1 sg
85 -48 -65 -46 2392 2715 3 MP
PP
c8
2392 2715 mt 2327 2669 L
2327 2669 mt 2412 2621 L
1 sg
-65 143 85 218 2276 1109 3 MP
PP
c8
2276 1109 mt 2361 1327 L
2361 1327 mt 2296 1470 L
1 sg
85 218 -65 -49 2341 1158 3 MP
PP
c8
2341 1158 mt 2276 1109 L
2276 1109 mt 2361 1327 L
1 sg
85 264 -65 143 2361 1327 3 MP
PP
c8
2361 1327 mt 2296 1470 L
2296 1470 mt 2381 1734 L
1 sg
-65 -195 85 -92 2321 1445 3 MP
PP
c8
2321 1445 mt 2406 1353 L
2406 1353 mt 2341 1158 L
1 sg
-65 149 85 264 2296 1470 3 MP
PP
c8
2296 1470 mt 2381 1734 L
2381 1734 mt 2316 1883 L
1 sg
85 -92 -66 -329 2387 1774 3 MP
PP
c8
2387 1774 mt 2321 1445 L
2321 1445 mt 2406 1353 L
1 sg
-65 -46 84 -30 2308 2745 3 MP
PP
c8
2308 2745 mt 2392 2715 L
2392 2715 mt 2327 2669 L
1 sg
84 -30 -65 -35 2373 2780 3 MP
PP
c8
2373 2780 mt 2308 2745 L
2308 2745 mt 2392 2715 L
1 sg
85 -25 -65 -33 2244 2026 3 MP
PP
c8
2244 2026 mt 2179 1993 L
2179 1993 mt 2264 1968 L
1 sg
-65 -34 85 -25 2179 1993 3 MP
PP
c8
2179 1993 mt 2264 1968 L
2264 1968 mt 2199 1934 L
1 sg
85 -25 -65 -34 2264 1968 3 MP
PP
c8
2264 1968 mt 2199 1934 L
2199 1934 mt 2284 1909 L
1 sg
-65 -33 85 -25 2199 1934 3 MP
PP
c8
2199 1934 mt 2284 1909 L
2284 1909 mt 2219 1876 L
1 sg
85 -26 -65 -33 2284 1909 3 MP
PP
c8
2284 1909 mt 2219 1876 L
2219 1876 mt 2304 1850 L
1 sg
-66 121 85 216 2231 1667 3 MP
PP
c8
2231 1667 mt 2316 1883 L
2316 1883 mt 2250 2004 L
1 sg
85 216 -65 197 2296 1470 3 MP
PP
c8
2296 1470 mt 2231 1667 L
2231 1667 mt 2316 1883 L
1 sg
85 -23 -65 -27 2290 2109 3 MP
PP
c8
2290 2109 mt 2225 2082 L
2225 2082 mt 2310 2059 L
1 sg
-66 -33 85 -23 2225 2082 3 MP
PP
c8
2225 2082 mt 2310 2059 L
2310 2059 mt 2244 2026 L
1 sg
85 90 -66 121 2316 1883 3 MP
PP
c8
2316 1883 mt 2250 2004 L
2250 2004 mt 2335 2094 L
1 sg
-66 -329 85 -195 2302 1969 3 MP
PP
c8
2302 1969 mt 2387 1774 L
2387 1774 mt 2321 1445 L
1 sg
-65 -27 85 -10 2205 2119 3 MP
PP
c8
2205 2119 mt 2290 2109 L
2290 2109 mt 2225 2082 L
1 sg
85 -10 -65 -1 2270 2120 3 MP
PP
c8
2270 2120 mt 2205 2119 L
2205 2119 mt 2290 2109 L
1 sg
-65 -19 85 8 2270 2120 3 MP
PP
c8
2270 2120 mt 2355 2128 L
2355 2128 mt 2290 2109 L
1 sg
-65 26 85 90 2250 2004 3 MP
PP
c8
2250 2004 mt 2335 2094 L
2335 2094 mt 2270 2120 L
1 sg
85 8 -65 26 2335 2094 3 MP
PP
c8
2335 2094 mt 2270 2120 L
2270 2120 mt 2355 2128 L
1 sg
85 -195 -65 -270 2367 2239 3 MP
PP
c8
2367 2239 mt 2302 1969 L
2302 1969 mt 2387 1774 L
1 sg
-65 -35 85 -26 2288 2806 3 MP
PP
c8
2288 2806 mt 2373 2780 L
2373 2780 mt 2308 2745 L
1 sg
85 -26 -65 -34 2353 2840 3 MP
PP
c8
2353 2840 mt 2288 2806 L
2288 2806 mt 2373 2780 L
1 sg
-65 -270 85 -148 2282 2387 3 MP
PP
c8
2282 2387 mt 2367 2239 L
2367 2239 mt 2302 1969 L
1 sg
85 -148 -65 -143 2347 2530 3 MP
PP
c8
2347 2530 mt 2282 2387 L
2282 2387 mt 2367 2239 L
1 sg
-65 -34 85 -25 2268 2865 3 MP
PP
c8
2268 2865 mt 2353 2840 L
2353 2840 mt 2288 2806 L
1 sg
-65 -143 85 -74 2262 2604 3 MP
PP
c8
2262 2604 mt 2347 2530 L
2347 2530 mt 2282 2387 L
1 sg
85 -74 -65 -65 2327 2669 3 MP
PP
c8
2327 2669 mt 2262 2604 L
2262 2604 mt 2347 2530 L
1 sg
85 259 -65 102 2276 1109 3 MP
PP
c8
2276 1109 mt 2211 1211 L
2211 1211 mt 2296 1470 L
1 sg
85 -10 -65 -277 2321 1445 3 MP
PP
c8
2321 1445 mt 2256 1168 L
2256 1168 mt 2341 1158 L
1 sg
-65 -49 85 -10 2256 1168 3 MP
PP
c8
2256 1168 mt 2341 1158 L
2341 1158 mt 2276 1109 L
1 sg
85 -37 -66 -39 2308 2745 3 MP
PP
c8
2308 2745 mt 2242 2706 L
2242 2706 mt 2327 2669 L
1 sg
-65 -65 85 -37 2242 2706 3 MP
PP
c8
2242 2706 mt 2327 2669 L
2327 2669 mt 2262 2604 L
1 sg
-65 197 85 259 2211 1211 3 MP
PP
c8
2211 1211 mt 2296 1470 L
2296 1470 mt 2231 1667 L
1 sg
-65 -277 85 -202 2236 1647 3 MP
PP
c8
2236 1647 mt 2321 1445 L
2321 1445 mt 2256 1168 L
1 sg
85 -202 -66 -322 2302 1969 3 MP
PP
c8
2302 1969 mt 2236 1647 L
2236 1647 mt 2321 1445 L
1 sg
85 -27 -65 -34 2288 2806 3 MP
PP
c8
2288 2806 mt 2223 2772 L
2223 2772 mt 2308 2745 L
1 sg
-66 -39 85 -27 2223 2772 3 MP
PP
c8
2223 2772 mt 2308 2745 L
2308 2745 mt 2242 2706 L
1 sg
-65 -31 85 -19 2140 2101 3 MP
PP
c8
2140 2101 mt 2225 2082 L
2225 2082 mt 2160 2051 L
1 sg
85 -19 -65 -18 2205 2119 3 MP
PP
c8
2205 2119 mt 2140 2101 L
2140 2101 mt 2225 2082 L
1 sg
-65 -1 85 40 2185 2080 3 MP
PP
c8
2185 2080 mt 2270 2120 L
2270 2120 mt 2205 2119 L
1 sg
-65 -33 84 -25 2160 2051 3 MP
PP
c8
2160 2051 mt 2244 2026 L
2244 2026 mt 2179 1993 L
1 sg
84 -25 -65 -31 2225 2082 3 MP
PP
c8
2225 2082 mt 2160 2051 L
2160 2051 mt 2244 2026 L
1 sg
85 40 -65 76 2250 2004 3 MP
PP
c8
2250 2004 mt 2185 2080 L
2185 2080 mt 2270 2120 L
1 sg
85 -208 -65 -210 2282 2387 3 MP
PP
c8
2282 2387 mt 2217 2177 L
2217 2177 mt 2302 1969 L
1 sg
85 -25 -65 -33 2199 1934 3 MP
PP
c8
2199 1934 mt 2134 1901 L
2134 1901 mt 2219 1876 L
1 sg
85 148 -66 189 2231 1667 3 MP
PP
c8
2231 1667 mt 2165 1856 L
2165 1856 mt 2250 2004 L
1 sg
85 -26 -66 -32 2160 2051 3 MP
PP
c8
2160 2051 mt 2094 2019 L
2094 2019 mt 2179 1993 L
1 sg
-65 -33 85 -26 2094 2019 3 MP
PP
c8
2094 2019 mt 2179 1993 L
2179 1993 mt 2114 1960 L
1 sg
-65 -33 85 -26 2114 1960 3 MP
PP
c8
2114 1960 mt 2199 1934 L
2199 1934 mt 2134 1901 L
1 sg
85 -26 -65 -33 2179 1993 3 MP
PP
c8
2179 1993 mt 2114 1960 L
2114 1960 mt 2199 1934 L
1 sg
-65 76 85 148 2165 1856 3 MP
PP
c8
2165 1856 mt 2250 2004 L
2250 2004 mt 2185 2080 L
1 sg
-66 -322 85 -208 2217 2177 3 MP
PP
c8
2217 2177 mt 2302 1969 L
2302 1969 mt 2236 1647 L
1 sg
-65 -34 85 -26 2203 2832 3 MP
PP
c8
2203 2832 mt 2288 2806 L
2288 2806 mt 2223 2772 L
1 sg
85 -26 -65 -33 2268 2865 3 MP
PP
c8
2268 2865 mt 2203 2832 L
2203 2832 mt 2288 2806 L
1 sg
85 -119 -65 -98 2262 2604 3 MP
PP
c8
2262 2604 mt 2197 2506 L
2197 2506 mt 2282 2387 L
1 sg
-65 -210 85 -119 2197 2506 3 MP
PP
c8
2197 2506 mt 2282 2387 L
2282 2387 mt 2217 2177 L
1 sg
-65 102 85 91 2191 1018 3 MP
PP
c8
2191 1018 mt 2276 1109 L
2276 1109 mt 2211 1211 L
1 sg
85 91 -65 -150 2256 1168 3 MP
PP
c8
2256 1168 mt 2191 1018 L
2191 1018 mt 2276 1109 L
1 sg
-65 -33 85 -26 2183 2891 3 MP
PP
c8
2183 2891 mt 2268 2865 L
2268 2865 mt 2203 2832 L
1 sg
-65 -98 85 -53 2177 2657 3 MP
PP
c8
2177 2657 mt 2262 2604 L
2262 2604 mt 2197 2506 L
1 sg
85 -53 -65 -49 2242 2706 3 MP
PP
c8
2242 2706 mt 2177 2657 L
2177 2657 mt 2262 2604 L
1 sg
-65 208 85 175 2126 1036 3 MP
PP
c8
2126 1036 mt 2211 1211 L
2211 1211 mt 2146 1419 L
1 sg
85 248 -65 208 2211 1211 3 MP
PP
c8
2211 1211 mt 2146 1419 L
2146 1419 mt 2231 1667 L
1 sg
85 -161 -65 -318 2236 1647 3 MP
PP
c8
2236 1647 mt 2171 1329 L
2171 1329 mt 2256 1168 L
1 sg
85 175 -65 18 2191 1018 3 MP
PP
c8
2191 1018 mt 2126 1036 L
2126 1036 mt 2211 1211 L
1 sg
-65 -150 85 -161 2171 1329 3 MP
PP
c8
2171 1329 mt 2256 1168 L
2256 1168 mt 2191 1018 L
1 sg
85 -31 -66 -35 2223 2772 3 MP
PP
c8
2223 2772 mt 2157 2737 L
2157 2737 mt 2242 2706 L
1 sg
-65 -49 85 -31 2157 2737 3 MP
PP
c8
2157 2737 mt 2242 2706 L
2242 2706 mt 2177 2657 L
1 sg
85 197 -66 240 2146 1419 3 MP
PP
c8
2146 1419 mt 2080 1659 L
2080 1659 mt 2165 1856 L
1 sg
-65 -33 85 -25 2029 1985 3 MP
PP
c8
2029 1985 mt 2114 1960 L
2114 1960 mt 2049 1927 L
1 sg
85 -25 -65 -34 2094 2019 3 MP
PP
c8
2094 2019 mt 2029 1985 L
2029 1985 mt 2114 1960 L
1 sg
85 -26 -65 -33 2114 1960 3 MP
PP
c8
2114 1960 mt 2049 1927 L
2049 1927 mt 2134 1901 L
1 sg
-65 141 85 197 2080 1659 3 MP
PP
c8
2080 1659 mt 2165 1856 L
2165 1856 mt 2100 1997 L
1 sg
85 -23 -65 -27 2140 2101 3 MP
PP
c8
2140 2101 mt 2075 2074 L
2075 2074 mt 2160 2051 L
1 sg
-66 -32 85 -23 2075 2074 3 MP
PP
c8
2075 2074 mt 2160 2051 L
2160 2051 mt 2094 2019 L
1 sg
85 83 -65 141 2165 1856 3 MP
PP
c8
2165 1856 mt 2100 1997 L
2100 1997 mt 2185 2080 L
1 sg
-66 189 85 248 2146 1419 3 MP
PP
c8
2146 1419 mt 2231 1667 L
2231 1667 mt 2165 1856 L
1 sg
-65 -318 84 -255 2152 1902 3 MP
PP
c8
2152 1902 mt 2236 1647 L
2236 1647 mt 2171 1329 L
1 sg
-65 -18 85 7 2120 2112 3 MP
PP
c8
2120 2112 mt 2205 2119 L
2205 2119 mt 2140 2101 L
1 sg
85 7 -65 32 2185 2080 3 MP
PP
c8
2185 2080 mt 2120 2112 L
2120 2112 mt 2205 2119 L
1 sg
84 -255 -65 -275 2217 2177 3 MP
PP
c8
2217 2177 mt 2152 1902 L
2152 1902 mt 2236 1647 L
1 sg
-66 -35 85 -26 2138 2798 3 MP
PP
c8
2138 2798 mt 2223 2772 L
2223 2772 mt 2157 2737 L
1 sg
85 -26 -65 -34 2203 2832 3 MP
PP
c8
2203 2832 mt 2138 2798 L
2138 2798 mt 2223 2772 L
1 sg
85 -180 -65 -149 2197 2506 3 MP
PP
c8
2197 2506 mt 2132 2357 L
2132 2357 mt 2217 2177 L
1 sg
85 -12 -65 1 2120 2112 3 MP
PP
c8
2120 2112 mt 2055 2113 L
2055 2113 mt 2140 2101 L
1 sg
-65 -27 85 -12 2055 2113 3 MP
PP
c8
2055 2113 mt 2140 2101 L
2140 2101 mt 2075 2074 L
1 sg
-65 32 85 83 2100 1997 3 MP
PP
c8
2100 1997 mt 2185 2080 L
2185 2080 mt 2120 2112 L
1 sg
-65 -275 85 -180 2132 2357 3 MP
PP
c8
2132 2357 mt 2217 2177 L
2217 2177 mt 2152 1902 L
1 sg
-65 -34 85 -26 2118 2858 3 MP
PP
c8
2118 2858 mt 2203 2832 L
2203 2832 mt 2138 2798 L
1 sg
85 -26 -65 -33 2183 2891 3 MP
PP
c8
2183 2891 mt 2118 2858 L
2118 2858 mt 2203 2832 L
1 sg
-65 -149 85 -85 2112 2591 3 MP
PP
c8
2112 2591 mt 2197 2506 L
2197 2506 mt 2132 2357 L
1 sg
85 -85 -65 -66 2177 2657 3 MP
PP
c8
2177 2657 mt 2112 2591 L
2112 2591 mt 2197 2506 L
1 sg
85 216 -65 167 2126 1036 3 MP
PP
c8
2126 1036 mt 2061 1203 L
2061 1203 mt 2146 1419 L
1 sg
85 -76 -65 -235 2171 1329 3 MP
PP
c8
2171 1329 mt 2106 1094 L
2106 1094 mt 2191 1018 L
1 sg
-65 18 85 -76 2106 1094 3 MP
PP
c8
2106 1094 mt 2191 1018 L
2191 1018 mt 2126 1036 L
1 sg
-65 -33 85 -25 2098 2916 3 MP
PP
c8
2098 2916 mt 2183 2891 L
2183 2891 mt 2118 2858 L
1 sg
85 -40 -65 -40 2157 2737 3 MP
PP
c8
2157 2737 mt 2092 2697 L
2092 2697 mt 2177 2657 L
1 sg
-65 -66 85 -40 2092 2697 3 MP
PP
c8
2092 2697 mt 2177 2657 L
2177 2657 mt 2112 2591 L
1 sg
-66 240 85 216 2061 1203 3 MP
PP
c8
2061 1203 mt 2146 1419 L
2146 1419 mt 2080 1659 L
1 sg
-65 -235 85 -266 2086 1595 3 MP
PP
c8
2086 1595 mt 2171 1329 L
2171 1329 mt 2106 1094 L
1 sg
85 -266 -66 -307 2152 1902 3 MP
PP
c8
2152 1902 mt 2086 1595 L
2086 1595 mt 2171 1329 L
1 sg
-65 -40 85 -27 2072 2764 3 MP
PP
c8
2072 2764 mt 2157 2737 L
2157 2737 mt 2092 2697 L
1 sg
85 -27 -66 -34 2138 2798 3 MP
PP
c8
2138 2798 mt 2072 2764 L
2072 2764 mt 2157 2737 L
1 sg
-66 -31 85 -21 1990 2095 3 MP
PP
c8
1990 2095 mt 2075 2074 L
2075 2074 mt 2009 2043 L
1 sg
85 -21 -65 -18 2055 2113 3 MP
PP
c8
2055 2113 mt 1990 2095 L
1990 2095 mt 2075 2074 L
1 sg
-65 1 85 34 2035 2078 3 MP
PP
c8
2035 2078 mt 2120 2112 L
2120 2112 mt 2055 2113 L
1 sg
85 -24 -66 -31 2075 2074 3 MP
PP
c8
2075 2074 mt 2009 2043 L
2009 2043 mt 2094 2019 L
1 sg
-65 -34 85 -24 2009 2043 3 MP
PP
c8
2009 2043 mt 2094 2019 L
2094 2019 mt 2029 1985 L
1 sg
85 34 -65 81 2100 1997 3 MP
PP
c8
2100 1997 mt 2035 2078 L
2035 2078 mt 2120 2112 L
1 sg
85 -248 -65 -207 2132 2357 3 MP
PP
c8
2132 2357 mt 2067 2150 L
2067 2150 mt 2152 1902 L
1 sg
85 129 -65 209 2080 1659 3 MP
PP
c8
2080 1659 mt 2015 1868 L
2015 1868 mt 2100 1997 L
1 sg
85 -26 -65 -32 2009 2043 3 MP
PP
c8
2009 2043 mt 1944 2011 L
1944 2011 mt 2029 1985 L
1 sg
-65 -33 85 -26 1944 2011 3 MP
PP
c8
1944 2011 mt 2029 1985 L
2029 1985 mt 1964 1952 L
1 sg
85 -25 -65 -33 2029 1985 3 MP
PP
c8
2029 1985 mt 1964 1952 L
1964 1952 mt 2049 1927 L
1 sg
-65 81 85 129 2015 1868 3 MP
PP
c8
2015 1868 mt 2100 1997 L
2100 1997 mt 2035 2078 L
1 sg
-66 -307 85 -248 2067 2150 3 MP
PP
c8
2067 2150 mt 2152 1902 L
2152 1902 mt 2086 1595 L
1 sg
85 -26 -65 -34 2118 2858 3 MP
PP
c8
2118 2858 mt 2053 2824 L
2053 2824 mt 2138 2798 L
1 sg
-66 -34 85 -26 2053 2824 3 MP
PP
c8
2053 2824 mt 2138 2798 L
2138 2798 mt 2072 2764 L
1 sg
85 -135 -65 -99 2112 2591 3 MP
PP
c8
2112 2591 mt 2047 2492 L
2047 2492 mt 2132 2357 L
1 sg
-65 -207 85 -135 2047 2492 3 MP
PP
c8
2047 2492 mt 2132 2357 L
2132 2357 mt 2067 2150 L
1 sg
-65 167 85 26 2041 1010 3 MP
PP
c8
2041 1010 mt 2126 1036 L
2126 1036 mt 2061 1203 L
1 sg
85 26 -65 -84 2106 1094 3 MP
PP
c8
2106 1094 mt 2041 1010 L
2041 1010 mt 2126 1036 L
1 sg
85 -25 -65 -33 2098 2916 3 MP
PP
c8
2098 2916 mt 2033 2883 L
2033 2883 mt 2118 2858 L
1 sg
-65 -34 85 -25 2033 2883 3 MP
PP
c8
2033 2883 mt 2118 2858 L
2118 2858 mt 2053 2824 L
1 sg
-65 -99 85 -58 2027 2649 3 MP
PP
c8
2027 2649 mt 2112 2591 L
2112 2591 mt 2047 2492 L
1 sg
85 -58 -65 -48 2092 2697 3 MP
PP
c8
2092 2697 mt 2027 2649 L
2027 2649 mt 2112 2591 L
1 sg
85 110 -65 83 2041 1010 3 MP
PP
c8
2041 1010 mt 1976 1093 L
1976 1093 mt 2061 1203 L
1 sg
-65 252 85 110 1976 1093 3 MP
PP
c8
1976 1093 mt 2061 1203 L
2061 1203 mt 1996 1455 L
1 sg
84 204 -65 252 2061 1203 3 MP
PP
c8
2061 1203 mt 1996 1455 L
1996 1455 mt 2080 1659 L
1 sg
-65 -84 85 -227 2021 1321 3 MP
PP
c8
2021 1321 mt 2106 1094 L
2106 1094 mt 2041 1010 L
1 sg
85 -227 -65 -274 2086 1595 3 MP
PP
c8
2086 1595 mt 2021 1321 L
2021 1321 mt 2106 1094 L
1 sg
-65 -33 85 -26 2013 2942 3 MP
PP
c8
2013 2942 mt 2098 2916 L
2098 2916 mt 2033 2883 L
1 sg
-65 -48 85 -32 2007 2729 3 MP
PP
c8
2007 2729 mt 2092 2697 L
2092 2697 mt 2027 2649 L
1 sg
85 -32 -65 -35 2072 2764 3 MP
PP
c8
2072 2764 mt 2007 2729 L
2007 2729 mt 2092 2697 L
1 sg
85 -26 -65 -33 1944 2011 3 MP
PP
c8
1944 2011 mt 1879 1978 L
1879 1978 mt 1964 1952 L
1 sg
-65 143 85 157 1930 1711 3 MP
PP
c8
1930 1711 mt 2015 1868 L
2015 1868 mt 1950 2011 L
1 sg
85 157 -66 256 1996 1455 3 MP
PP
c8
1996 1455 mt 1930 1711 L
1930 1711 mt 2015 1868 L
1 sg
85 -24 -66 -28 1990 2095 3 MP
PP
c8
1990 2095 mt 1924 2067 L
1924 2067 mt 2009 2043 L
1 sg
-65 -32 85 -24 1924 2067 3 MP
PP
c8
1924 2067 mt 2009 2043 L
2009 2043 mt 1944 2011 L
1 sg
85 67 -65 143 2015 1868 3 MP
PP
c8
2015 1868 mt 1950 2011 L
1950 2011 mt 2035 2078 L
1 sg
-65 209 84 204 1996 1455 3 MP
PP
c8
1996 1455 mt 2080 1659 L
2080 1659 mt 2015 1868 L
1 sg
85 -299 -66 -256 2067 2150 3 MP
PP
c8
2067 2150 mt 2001 1894 L
2001 1894 mt 2086 1595 L
1 sg
-65 -274 85 -299 2001 1894 3 MP
PP
c8
2001 1894 mt 2086 1595 L
2086 1595 mt 2021 1321 L
1 sg
-65 -35 84 -27 1988 2791 3 MP
PP
c8
1988 2791 mt 2072 2764 L
2072 2764 mt 2007 2729 L
1 sg
84 -27 -65 -33 2053 2824 3 MP
PP
c8
2053 2824 mt 1988 2791 L
1988 2791 mt 2072 2764 L
1 sg
-66 -28 85 -13 1905 2108 3 MP
PP
c8
1905 2108 mt 1990 2095 L
1990 2095 mt 1924 2067 L
1 sg
85 -13 -65 -2 1970 2110 3 MP
PP
c8
1970 2110 mt 1905 2108 L
1905 2108 mt 1990 2095 L
1 sg
-65 -18 85 3 1970 2110 3 MP
PP
c8
1970 2110 mt 2055 2113 L
2055 2113 mt 1990 2095 L
1 sg
-65 32 85 67 1950 2011 3 MP
PP
c8
1950 2011 mt 2035 2078 L
2035 2078 mt 1970 2110 L
1 sg
85 3 -65 32 2035 2078 3 MP
PP
c8
2035 2078 mt 1970 2110 L
1970 2110 mt 2055 2113 L
1 sg
-66 -256 85 -200 1982 2350 3 MP
PP
c8
1982 2350 mt 2067 2150 L
2067 2150 mt 2001 1894 L
1 sg
85 -200 -65 -142 2047 2492 3 MP
PP
c8
2047 2492 mt 1982 2350 L
1982 2350 mt 2067 2150 L
1 sg
-65 -33 85 -26 1968 2850 3 MP
PP
c8
1968 2850 mt 2053 2824 L
2053 2824 mt 1988 2791 L
1 sg
85 -26 -65 -33 2033 2883 3 MP
PP
c8
2033 2883 mt 1968 2850 L
1968 2850 mt 2053 2824 L
1 sg
-65 -142 85 -91 1962 2583 3 MP
PP
c8
1962 2583 mt 2047 2492 L
2047 2492 mt 1982 2350 L
1 sg
85 -91 -65 -66 2027 2649 3 MP
PP
c8
2027 2649 mt 1962 2583 L
1962 2583 mt 2047 2492 L
1 sg
-65 211 85 -42 1891 1135 3 MP
PP
c8
1891 1135 mt 1976 1093 L
1976 1093 mt 1911 1304 L
1 sg
85 151 -65 211 1976 1093 3 MP
PP
c8
1976 1093 mt 1911 1304 L
1911 1304 mt 1996 1455 L
1 sg
85 -142 -65 -169 2021 1321 3 MP
PP
c8
2021 1321 mt 1956 1152 L
1956 1152 mt 2041 1010 L
1 sg
-65 83 85 -142 1956 1152 3 MP
PP
c8
1956 1152 mt 2041 1010 L
2041 1010 mt 1976 1093 L
1 sg
-65 -33 85 -26 1948 2909 3 MP
PP
c8
1948 2909 mt 2033 2883 L
2033 2883 mt 1968 2850 L
1 sg
85 -26 -65 -33 2013 2942 3 MP
PP
c8
2013 2942 mt 1948 2909 L
1948 2909 mt 2033 2883 L
1 sg
-65 -66 85 -40 1942 2689 3 MP
PP
c8
1942 2689 mt 2027 2649 L
2027 2649 mt 1962 2583 L
1 sg
85 -40 -65 -40 2007 2729 3 MP
PP
c8
2007 2729 mt 1942 2689 L
1942 2689 mt 2027 2649 L
1 sg
-66 256 85 151 1911 1304 3 MP
PP
c8
1911 1304 mt 1996 1455 L
1996 1455 mt 1930 1711 L
1 sg
85 -310 -65 -263 2001 1894 3 MP
PP
c8
2001 1894 mt 1936 1631 L
1936 1631 mt 2021 1321 L
1 sg
-65 -169 85 -310 1936 1631 3 MP
PP
c8
1936 1631 mt 2021 1321 L
2021 1321 mt 1956 1152 L
1 sg
-65 -33 85 -25 1928 2967 3 MP
PP
c8
1928 2967 mt 2013 2942 L
2013 2942 mt 1948 2909 L
1 sg
85 -28 -66 -34 1988 2791 3 MP
PP
c8
1988 2791 mt 1922 2757 L
1922 2757 mt 2007 2729 L
1 sg
-65 -40 85 -28 1922 2757 3 MP
PP
c8
1922 2757 mt 2007 2729 L
2007 2729 mt 1942 2689 L
1 sg
84 -21 -65 -20 1905 2108 3 MP
PP
c8
1905 2108 mt 1840 2088 L
1840 2088 mt 1924 2067 L
1 sg
-65 -2 85 23 1885 2087 3 MP
PP
c8
1885 2087 mt 1970 2110 L
1970 2110 mt 1905 2108 L
1 sg
-65 -31 84 -21 1840 2088 3 MP
PP
c8
1840 2088 mt 1924 2067 L
1924 2067 mt 1859 2036 L
1 sg
85 -25 -65 -31 1924 2067 3 MP
PP
c8
1924 2067 mt 1859 2036 L
1859 2036 mt 1944 2011 L
1 sg
85 23 -65 76 1950 2011 3 MP
PP
c8
1950 2011 mt 1885 2087 L
1885 2087 mt 1970 2110 L
1 sg
85 -268 -66 -188 1982 2350 3 MP
PP
c8
1982 2350 mt 1916 2162 L
1916 2162 mt 2001 1894 L
1 sg
-65 -33 85 -25 1859 2036 3 MP
PP
c8
1859 2036 mt 1944 2011 L
1944 2011 mt 1879 1978 L
1 sg
85 -25 -65 -33 1859 2036 3 MP
PP
c8
1859 2036 mt 1794 2003 L
1794 2003 mt 1879 1978 L
1 sg
-65 76 85 97 1865 1914 3 MP
PP
c8
1865 1914 mt 1950 2011 L
1950 2011 mt 1885 2087 L
1 sg
85 97 -65 203 1930 1711 3 MP
PP
c8
1930 1711 mt 1865 1914 L
1865 1914 mt 1950 2011 L
1 sg
-65 -263 85 -268 1916 2162 3 MP
PP
c8
1916 2162 mt 2001 1894 L
2001 1894 mt 1936 1631 L
1 sg
-66 -34 85 -25 1903 2816 3 MP
PP
c8
1903 2816 mt 1988 2791 L
1988 2791 mt 1922 2757 L
1 sg
85 -25 -65 -34 1968 2850 3 MP
PP
c8
1968 2850 mt 1903 2816 L
1903 2816 mt 1988 2791 L
1 sg
85 -140 -65 -93 1962 2583 3 MP
PP
c8
1962 2583 mt 1897 2490 L
1897 2490 mt 1982 2350 L
1 sg
-66 -188 85 -140 1897 2490 3 MP
PP
c8
1897 2490 mt 1982 2350 L
1982 2350 mt 1916 2162 L
1 sg
85 -42 -65 -17 1956 1152 3 MP
PP
c8
1956 1152 mt 1891 1135 L
1891 1135 mt 1976 1093 L
1 sg
85 -25 -65 -34 1948 2909 3 MP
PP
c8
1948 2909 mt 1883 2875 L
1883 2875 mt 1968 2850 L
1 sg
-65 -34 85 -25 1883 2875 3 MP
PP
c8
1883 2875 mt 1968 2850 L
1968 2850 mt 1903 2816 L
1 sg
85 -59 -65 -47 1942 2689 3 MP
PP
c8
1942 2689 mt 1877 2642 L
1877 2642 mt 1962 2583 L
1 sg
-65 -93 85 -59 1877 2642 3 MP
PP
c8
1877 2642 mt 1962 2583 L
1962 2583 mt 1897 2490 L
1 sg
-66 262 85 41 1826 1263 3 MP
PP
c8
1826 1263 mt 1911 1304 L
1911 1304 mt 1845 1566 L
1 sg
85 41 -65 128 1891 1135 3 MP
PP
c8
1891 1135 mt 1826 1263 L
1826 1263 mt 1911 1304 L
1 sg
85 145 -66 262 1911 1304 3 MP
PP
c8
1911 1304 mt 1845 1566 L
1845 1566 mt 1930 1711 L
1 sg
85 -270 -65 -209 1936 1631 3 MP
PP
c8
1936 1631 mt 1871 1422 L
1871 1422 mt 1956 1152 L
1 sg
-65 -17 85 -270 1871 1422 3 MP
PP
c8
1871 1422 mt 1956 1152 L
1956 1152 mt 1891 1135 L
1 sg
-65 -34 85 -25 1863 2934 3 MP
PP
c8
1863 2934 mt 1948 2909 L
1948 2909 mt 1883 2875 L
1 sg
85 -25 -65 -33 1928 2967 3 MP
PP
c8
1928 2967 mt 1863 2934 L
1863 2934 mt 1948 2909 L
1 sg
-65 -47 85 -32 1857 2721 3 MP
PP
c8
1857 2721 mt 1942 2689 L
1942 2689 mt 1877 2642 L
1 sg
85 -32 -65 -36 1922 2757 3 MP
PP
c8
1922 2757 mt 1857 2721 L
1857 2721 mt 1942 2689 L
1 sg
-65 -33 85 -24 1774 2060 3 MP
PP
c8
1774 2060 mt 1859 2036 L
1859 2036 mt 1794 2003 L
1 sg
-65 127 85 108 1780 1806 3 MP
PP
c8
1780 1806 mt 1865 1914 L
1865 1914 mt 1800 2041 L
1 sg
85 108 -65 240 1845 1566 3 MP
PP
c8
1845 1566 mt 1780 1806 L
1780 1806 mt 1865 1914 L
1 sg
85 -24 -66 -28 1840 2088 3 MP
PP
c8
1840 2088 mt 1774 2060 L
1774 2060 mt 1859 2036 L
1 sg
85 46 -65 127 1865 1914 3 MP
PP
c8
1865 1914 mt 1800 2041 L
1800 2041 mt 1885 2087 L
1 sg
-65 203 85 145 1845 1566 3 MP
PP
c8
1845 1566 mt 1930 1711 L
1930 1711 mt 1865 1914 L
1 sg
-65 -209 85 -315 1851 1946 3 MP
PP
c8
1851 1946 mt 1936 1631 L
1936 1631 mt 1871 1422 L
1 sg
-65 -20 85 -4 1820 2112 3 MP
PP
c8
1820 2112 mt 1905 2108 L
1905 2108 mt 1840 2088 L
1 sg
85 -4 -65 25 1885 2087 3 MP
PP
c8
1885 2087 mt 1820 2112 L
1820 2112 mt 1905 2108 L
1 sg
85 -315 -65 -216 1916 2162 3 MP
PP
c8
1916 2162 mt 1851 1946 L
1851 1946 mt 1936 1631 L
1 sg
85 -26 -66 -33 1903 2816 3 MP
PP
c8
1903 2816 mt 1837 2783 L
1837 2783 mt 1922 2757 L
1 sg
-65 -36 85 -26 1837 2783 3 MP
PP
c8
1837 2783 mt 1922 2757 L
1922 2757 mt 1857 2721 L
1 sg
-66 -28 85 -17 1755 2105 3 MP
PP
c8
1755 2105 mt 1840 2088 L
1840 2088 mt 1774 2060 L
1 sg
85 -17 -65 -7 1820 2112 3 MP
PP
c8
1820 2112 mt 1755 2105 L
1755 2105 mt 1840 2088 L
1 sg
-65 25 85 46 1800 2041 3 MP
PP
c8
1800 2041 mt 1885 2087 L
1885 2087 mt 1820 2112 L
1 sg
-65 -216 84 -202 1832 2364 3 MP
PP
c8
1832 2364 mt 1916 2162 L
1916 2162 mt 1851 1946 L
1 sg
84 -202 -65 -126 1897 2490 3 MP
PP
c8
1897 2490 mt 1832 2364 L
1832 2364 mt 1916 2162 L
1 sg
85 -26 -65 -33 1883 2875 3 MP
PP
c8
1883 2875 mt 1818 2842 L
1818 2842 mt 1903 2816 L
1 sg
-66 -33 85 -26 1818 2842 3 MP
PP
c8
1818 2842 mt 1903 2816 L
1903 2816 mt 1837 2783 L
1 sg
85 -90 -65 -62 1877 2642 3 MP
PP
c8
1877 2642 mt 1812 2580 L
1812 2580 mt 1897 2490 L
1 sg
-65 -126 85 -90 1812 2580 3 MP
PP
c8
1812 2580 mt 1897 2490 L
1897 2490 mt 1832 2364 L
1 sg
-66 220 85 -92 1741 1355 3 MP
PP
c8
1741 1355 mt 1826 1263 L
1826 1263 mt 1760 1483 L
1 sg
85 83 -66 220 1826 1263 3 MP
PP
c8
1826 1263 mt 1760 1483 L
1760 1483 mt 1845 1566 L
1 sg
85 -187 -65 -100 1871 1422 3 MP
PP
c8
1871 1422 mt 1806 1322 L
1806 1322 mt 1891 1135 L
1 sg
-65 128 85 -187 1806 1322 3 MP
PP
c8
1806 1322 mt 1891 1135 L
1891 1135 mt 1826 1263 L
1 sg
85 -26 -65 -33 1863 2934 3 MP
PP
c8
1863 2934 mt 1798 2901 L
1798 2901 mt 1883 2875 L
1 sg
-65 -33 85 -26 1798 2901 3 MP
PP
c8
1798 2901 mt 1883 2875 L
1883 2875 mt 1818 2842 L
1 sg
-65 -62 85 -41 1792 2683 3 MP
PP
c8
1792 2683 mt 1877 2642 L
1877 2642 mt 1812 2580 L
1 sg
85 -41 -65 -38 1857 2721 3 MP
PP
c8
1857 2721 mt 1792 2683 L
1792 2683 mt 1877 2642 L
1 sg
-65 240 85 83 1760 1483 3 MP
PP
c8
1760 1483 mt 1845 1566 L
1845 1566 mt 1780 1806 L
1 sg
85 -321 -65 -203 1851 1946 3 MP
PP
c8
1851 1946 mt 1786 1743 L
1786 1743 mt 1871 1422 L
1 sg
-65 -100 85 -321 1786 1743 3 MP
PP
c8
1786 1743 mt 1871 1422 L
1871 1422 mt 1806 1322 L
1 sg
85 -28 -65 -34 1837 2783 3 MP
PP
c8
1837 2783 mt 1772 2749 L
1772 2749 mt 1857 2721 L
1 sg
-65 -38 85 -28 1772 2749 3 MP
PP
c8
1772 2749 mt 1857 2721 L
1857 2721 mt 1792 2683 L
1 sg
-66 -23 85 -10 1670 2115 3 MP
PP
c8
1670 2115 mt 1755 2105 L
1755 2105 mt 1689 2082 L
1 sg
85 -22 -66 -23 1755 2105 3 MP
PP
c8
1755 2105 mt 1689 2082 L
1689 2082 mt 1774 2060 L
1 sg
85 11 -65 60 1800 2041 3 MP
PP
c8
1800 2041 mt 1735 2101 L
1735 2101 mt 1820 2112 L
1 sg
-65 -7 85 11 1735 2101 3 MP
PP
c8
1735 2101 mt 1820 2112 L
1820 2112 mt 1755 2105 L
1 sg
85 -262 -66 -156 1832 2364 3 MP
PP
c8
1832 2364 mt 1766 2208 L
1766 2208 mt 1851 1946 L
1 sg
-65 -32 85 -22 1689 2082 3 MP
PP
c8
1689 2082 mt 1774 2060 L
1774 2060 mt 1709 2028 L
1 sg
85 -25 -65 -32 1774 2060 3 MP
PP
c8
1774 2060 mt 1709 2028 L
1709 2028 mt 1794 2003 L
1 sg
85 62 -65 173 1780 1806 3 MP
PP
c8
1780 1806 mt 1715 1979 L
1715 1979 mt 1800 2041 L
1 sg
-65 60 85 62 1715 1979 3 MP
PP
c8
1715 1979 mt 1800 2041 L
1800 2041 mt 1735 2101 L
1 sg
-65 -203 85 -262 1766 2208 3 MP
PP
c8
1766 2208 mt 1851 1946 L
1851 1946 mt 1786 1743 L
1 sg
85 -26 -66 -33 1818 2842 3 MP
PP
c8
1818 2842 mt 1752 2809 L
1752 2809 mt 1837 2783 L
1 sg
-65 -34 85 -26 1752 2809 3 MP
PP
c8
1752 2809 mt 1837 2783 L
1837 2783 mt 1772 2749 L
1 sg
85 -135 -65 -81 1812 2580 3 MP
PP
c8
1812 2580 mt 1747 2499 L
1747 2499 mt 1832 2364 L
1 sg
-66 -156 85 -135 1747 2499 3 MP
PP
c8
1747 2499 mt 1832 2364 L
1832 2364 mt 1766 2208 L
1 sg
85 -92 -65 33 1806 1322 3 MP
PP
c8
1806 1322 mt 1741 1355 L
1741 1355 mt 1826 1263 L
1 sg
-66 -33 85 -26 1733 2868 3 MP
PP
c8
1733 2868 mt 1818 2842 L
1818 2842 mt 1752 2809 L
1 sg
85 -26 -65 -33 1798 2901 3 MP
PP
c8
1798 2901 mt 1733 2868 L
1733 2868 mt 1818 2842 L
1 sg
-65 -81 85 -58 1727 2638 3 MP
PP
c8
1727 2638 mt 1812 2580 L
1812 2580 mt 1747 2499 L
1 sg
85 -58 -65 -45 1792 2683 3 MP
PP
c8
1792 2683 mt 1727 2638 L
1727 2638 mt 1812 2580 L
1 sg
-65 239 84 -15 1676 1498 3 MP
PP
c8
1676 1498 mt 1760 1483 L
1760 1483 mt 1695 1722 L
1 sg
84 -15 -65 143 1741 1355 3 MP
PP
c8
1741 1355 mt 1676 1498 L
1676 1498 mt 1760 1483 L
1 sg
85 84 -65 239 1760 1483 3 MP
PP
c8
1760 1483 mt 1695 1722 L
1695 1722 mt 1780 1806 L
1 sg
85 -279 -65 -142 1786 1743 3 MP
PP
c8
1786 1743 mt 1721 1601 L
1721 1601 mt 1806 1322 L
1 sg
-65 33 85 -279 1721 1601 3 MP
PP
c8
1721 1601 mt 1806 1322 L
1806 1322 mt 1741 1355 L
1 sg
-65 -45 85 -31 1707 2714 3 MP
PP
c8
1707 2714 mt 1792 2683 L
1792 2683 mt 1727 2638 L
1 sg
85 -31 -65 -35 1772 2749 3 MP
PP
c8
1772 2749 mt 1707 2714 L
1707 2714 mt 1792 2683 L
1 sg
85 -25 -65 -29 1689 2082 3 MP
PP
c8
1689 2082 mt 1624 2053 L
1624 2053 mt 1709 2028 L
1 sg
85 60 -65 197 1695 1722 3 MP
PP
c8
1695 1722 mt 1630 1919 L
1630 1919 mt 1715 1979 L
1 sg
-65 -29 85 -20 1604 2102 3 MP
PP
c8
1604 2102 mt 1689 2082 L
1689 2082 mt 1624 2053 L
1 sg
-65 99 85 60 1630 1919 3 MP
PP
c8
1630 1919 mt 1715 1979 L
1715 1979 mt 1650 2078 L
1 sg
85 -20 -66 -13 1670 2115 3 MP
PP
c8
1670 2115 mt 1604 2102 L
1604 2102 mt 1689 2082 L
1 sg
85 23 -65 99 1715 1979 3 MP
PP
c8
1715 1979 mt 1650 2078 L
1650 2078 mt 1735 2101 L
1 sg
-65 173 85 84 1695 1722 3 MP
PP
c8
1695 1722 mt 1780 1806 L
1780 1806 mt 1715 1979 L
1 sg
-65 -142 85 -298 1701 2041 3 MP
PP
c8
1701 2041 mt 1786 1743 L
1786 1743 mt 1721 1601 L
1 sg
-65 14 85 23 1650 2078 3 MP
PP
c8
1650 2078 mt 1735 2101 L
1735 2101 mt 1670 2115 L
1 sg
85 -10 -65 14 1735 2101 3 MP
PP
c8
1735 2101 mt 1670 2115 L
1670 2115 mt 1755 2105 L
1 sg
85 -298 -65 -167 1766 2208 3 MP
PP
c8
1766 2208 mt 1701 2041 L
1701 2041 mt 1786 1743 L
1 sg
85 -26 -65 -34 1752 2809 3 MP
PP
c8
1752 2809 mt 1687 2775 L
1687 2775 mt 1772 2749 L
1 sg
-65 -35 85 -26 1687 2775 3 MP
PP
c8
1687 2775 mt 1772 2749 L
1772 2749 mt 1707 2714 L
1 sg
85 -186 -66 -105 1747 2499 3 MP
PP
c8
1747 2499 mt 1681 2394 L
1681 2394 mt 1766 2208 L
1 sg
-65 -167 85 -186 1681 2394 3 MP
PP
c8
1681 2394 mt 1766 2208 L
1766 2208 mt 1701 2041 L
1 sg
-65 -34 84 -25 1668 2834 3 MP
PP
c8
1668 2834 mt 1752 2809 L
1752 2809 mt 1687 2775 L
1 sg
84 -25 -65 -34 1733 2868 3 MP
PP
c8
1733 2868 mt 1668 2834 L
1668 2834 mt 1752 2809 L
1 sg
-66 -105 85 -83 1662 2582 3 MP
PP
c8
1662 2582 mt 1747 2499 L
1747 2499 mt 1681 2394 L
1 sg
85 -83 -65 -56 1727 2638 3 MP
PP
c8
1727 2638 mt 1662 2582 L
1662 2582 mt 1747 2499 L
1 sg
-66 197 85 -117 1591 1615 3 MP
PP
c8
1591 1615 mt 1676 1498 L
1676 1498 mt 1610 1695 L
1 sg
85 27 -66 197 1676 1498 3 MP
PP
c8
1676 1498 mt 1610 1695 L
1610 1695 mt 1695 1722 L
1 sg
85 -202 -65 -44 1721 1601 3 MP
PP
c8
1721 1601 mt 1656 1557 L
1656 1557 mt 1741 1355 L
1 sg
-65 143 85 -202 1656 1557 3 MP
PP
c8
1656 1557 mt 1741 1355 L
1741 1355 mt 1676 1498 L
1 sg
85 -38 -65 -38 1707 2714 3 MP
PP
c8
1707 2714 mt 1642 2676 L
1642 2676 mt 1727 2638 L
1 sg
-65 -56 85 -38 1642 2676 3 MP
PP
c8
1642 2676 mt 1727 2638 L
1727 2638 mt 1662 2582 L
1 sg
-65 197 85 27 1610 1695 3 MP
PP
c8
1610 1695 mt 1695 1722 L
1695 1722 mt 1630 1919 L
1 sg
-65 -44 85 -297 1636 1898 3 MP
PP
c8
1636 1898 mt 1721 1601 L
1721 1601 mt 1656 1557 L
1 sg
85 -297 -65 -143 1701 2041 3 MP
PP
c8
1701 2041 mt 1636 1898 L
1636 1898 mt 1721 1601 L
1 sg
-65 -38 85 -27 1622 2741 3 MP
PP
c8
1622 2741 mt 1707 2714 L
1707 2714 mt 1642 2676 L
1 sg
85 -27 -65 -34 1687 2775 3 MP
PP
c8
1687 2775 mt 1622 2741 L
1622 2741 mt 1707 2714 L
1 sg
85 -23 -65 -26 1604 2102 3 MP
PP
c8
1604 2102 mt 1539 2076 L
1539 2076 mt 1624 2053 L
1 sg
85 30 -65 129 1630 1919 3 MP
PP
c8
1630 1919 mt 1565 2048 L
1565 2048 mt 1650 2078 L
1 sg
-65 -26 84 -16 1520 2118 3 MP
PP
c8
1520 2118 mt 1604 2102 L
1604 2102 mt 1539 2076 L
1 sg
84 -16 -65 1 1585 2117 3 MP
PP
c8
1585 2117 mt 1520 2118 L
1520 2118 mt 1604 2102 L
1 sg
-66 -13 85 -2 1585 2117 3 MP
PP
c8
1585 2117 mt 1670 2115 L
1670 2115 mt 1604 2102 L
1 sg
-65 39 85 30 1565 2048 3 MP
PP
c8
1565 2048 mt 1650 2078 L
1650 2078 mt 1585 2117 L
1 sg
85 -2 -65 39 1650 2078 3 MP
PP
c8
1650 2078 mt 1585 2117 L
1585 2117 mt 1670 2115 L
1 sg
-65 -143 85 -232 1616 2273 3 MP
PP
c8
1616 2273 mt 1701 2041 L
1701 2041 mt 1636 1898 L
1 sg
85 -232 -65 -121 1681 2394 3 MP
PP
c8
1681 2394 mt 1616 2273 L
1616 2273 mt 1701 2041 L
1 sg
85 -26 -66 -33 1668 2834 3 MP
PP
c8
1668 2834 mt 1602 2801 L
1602 2801 mt 1687 2775 L
1 sg
-65 -34 85 -26 1602 2801 3 MP
PP
c8
1602 2801 mt 1687 2775 L
1687 2775 mt 1622 2741 L
1 sg
85 -119 -66 -69 1662 2582 3 MP
PP
c8
1662 2582 mt 1596 2513 L
1596 2513 mt 1681 2394 L
1 sg
-65 -121 85 -119 1596 2513 3 MP
PP
c8
1596 2513 mt 1681 2394 L
1681 2394 mt 1616 2273 L
1 sg
85 -117 -65 58 1656 1557 3 MP
PP
c8
1656 1557 mt 1591 1615 L
1591 1615 mt 1676 1498 L
1 sg
85 -52 -65 -42 1642 2676 3 MP
PP
c8
1642 2676 mt 1577 2634 L
1577 2634 mt 1662 2582 L
1 sg
-66 -69 85 -52 1577 2634 3 MP
PP
c8
1577 2634 mt 1662 2582 L
1662 2582 mt 1596 2513 L
1 sg
-65 189 85 -48 1525 1743 3 MP
PP
c8
1525 1743 mt 1610 1695 L
1610 1695 mt 1545 1884 L
1 sg
85 -48 -66 128 1591 1615 3 MP
PP
c8
1591 1615 mt 1525 1743 L
1525 1743 mt 1610 1695 L
1 sg
85 35 -65 189 1610 1695 3 MP
PP
c8
1610 1695 mt 1545 1884 L
1545 1884 mt 1630 1919 L
1 sg
85 -255 -65 -86 1636 1898 3 MP
PP
c8
1636 1898 mt 1571 1812 L
1571 1812 mt 1656 1557 L
1 sg
-65 58 85 -255 1571 1812 3 MP
PP
c8
1571 1812 mt 1656 1557 L
1656 1557 mt 1591 1615 L
1 sg
85 -31 -65 -34 1622 2741 3 MP
PP
c8
1622 2741 mt 1557 2707 L
1557 2707 mt 1642 2676 L
1 sg
-65 -42 85 -31 1557 2707 3 MP
PP
c8
1557 2707 mt 1642 2676 L
1642 2676 mt 1577 2634 L
1 sg
-66 -20 85 -11 1435 2129 3 MP
PP
c8
1435 2129 mt 1520 2118 L
1520 2118 mt 1454 2098 L
1 sg
85 -22 -66 -20 1520 2118 3 MP
PP
c8
1520 2118 mt 1454 2098 L
1454 2098 mt 1539 2076 L
1 sg
-65 1 85 5 1500 2112 3 MP
PP
c8
1500 2112 mt 1585 2117 L
1585 2117 mt 1520 2118 L
1 sg
85 5 -65 64 1565 2048 3 MP
PP
c8
1565 2048 mt 1500 2112 L
1500 2112 mt 1585 2117 L
1 sg
-65 129 85 35 1545 1884 3 MP
PP
c8
1545 1884 mt 1630 1919 L
1630 1919 mt 1565 2048 L
1 sg
85 -256 -65 -119 1616 2273 3 MP
PP
c8
1616 2273 mt 1551 2154 L
1551 2154 mt 1636 1898 L
1 sg
-65 64 85 23 1480 2025 3 MP
PP
c8
1480 2025 mt 1565 2048 L
1565 2048 mt 1500 2112 L
1 sg
85 23 -65 141 1545 1884 3 MP
PP
c8
1545 1884 mt 1480 2025 L
1480 2025 mt 1565 2048 L
1 sg
-65 -86 85 -256 1551 2154 3 MP
PP
c8
1551 2154 mt 1636 1898 L
1636 1898 mt 1571 1812 L
1 sg
85 -27 -65 -33 1602 2801 3 MP
PP
c8
1602 2801 mt 1537 2768 L
1537 2768 mt 1622 2741 L
1 sg
-65 -34 85 -27 1537 2768 3 MP
PP
c8
1537 2768 mt 1622 2741 L
1622 2741 mt 1557 2707 L
1 sg
85 -158 -65 -82 1596 2513 3 MP
PP
c8
1596 2513 mt 1531 2431 L
1531 2431 mt 1616 2273 L
1 sg
-65 -119 85 -158 1531 2431 3 MP
PP
c8
1531 2431 mt 1616 2273 L
1616 2273 mt 1551 2154 L
1 sg
84 -72 -65 -49 1577 2634 3 MP
PP
c8
1577 2634 mt 1512 2585 L
1512 2585 mt 1596 2513 L
1 sg
-65 -82 84 -72 1512 2585 3 MP
PP
c8
1512 2585 mt 1596 2513 L
1596 2513 mt 1531 2431 L
1 sg
85 -10 -65 151 1525 1743 3 MP
PP
c8
1525 1743 mt 1460 1894 L
1460 1894 mt 1545 1884 L
1 sg
85 -187 -65 -10 1571 1812 3 MP
PP
c8
1571 1812 mt 1506 1802 L
1506 1802 mt 1591 1615 L
1 sg
-66 128 85 -187 1506 1802 3 MP
PP
c8
1506 1802 mt 1591 1615 L
1591 1615 mt 1525 1743 L
1 sg
-65 -49 85 -36 1492 2670 3 MP
PP
c8
1492 2670 mt 1577 2634 L
1577 2634 mt 1512 2585 L
1 sg
85 -36 -65 -37 1557 2707 3 MP
PP
c8
1557 2707 mt 1492 2670 L
1492 2670 mt 1577 2634 L
1 sg
85 -20 -66 -11 1435 2129 3 MP
PP
c8
1435 2129 mt 1369 2118 L
1369 2118 mt 1454 2098 L
1 sg
85 6 -65 81 1480 2025 3 MP
PP
c8
1480 2025 mt 1415 2106 L
1415 2106 mt 1500 2112 L
1 sg
-65 141 85 -10 1460 1894 3 MP
PP
c8
1460 1894 mt 1545 1884 L
1545 1884 mt 1480 2025 L
1 sg
-65 -10 85 -248 1486 2060 3 MP
PP
c8
1486 2060 mt 1571 1812 L
1571 1812 mt 1506 1802 L
1 sg
85 -248 -65 -94 1551 2154 3 MP
PP
c8
1551 2154 mt 1486 2060 L
1486 2060 mt 1571 1812 L
1 sg
85 -27 -65 -34 1537 2768 3 MP
PP
c8
1537 2768 mt 1472 2734 L
1472 2734 mt 1557 2707 L
1 sg
-65 -37 85 -27 1472 2734 3 MP
PP
c8
1472 2734 mt 1557 2707 L
1557 2707 mt 1492 2670 L
1 sg
85 -188 -65 -89 1531 2431 3 MP
PP
c8
1531 2431 mt 1466 2342 L
1466 2342 mt 1551 2154 L
1 sg
-65 17 85 6 1415 2106 3 MP
PP
c8
1415 2106 mt 1500 2112 L
1500 2112 mt 1435 2129 L
1 sg
85 -11 -65 17 1500 2112 3 MP
PP
c8
1500 2112 mt 1435 2129 L
1435 2129 mt 1520 2118 L
1 sg
-65 -94 85 -188 1466 2342 3 MP
PP
c8
1466 2342 mt 1551 2154 L
1551 2154 mt 1486 2060 L
1 sg
-65 -89 85 -97 1446 2528 3 MP
PP
c8
1446 2528 mt 1531 2431 L
1531 2431 mt 1466 2342 L
1 sg
85 -97 -66 -57 1512 2585 3 MP
PP
c8
1512 2585 mt 1446 2528 L
1446 2528 mt 1531 2431 L
1 sg
-65 151 84 -116 1441 1859 3 MP
PP
c8
1441 1859 mt 1525 1743 L
1525 1743 mt 1460 1894 L
1 sg
84 -116 -65 57 1506 1802 3 MP
PP
c8
1506 1802 mt 1441 1859 L
1441 1859 mt 1525 1743 L
1 sg
85 -46 -65 -39 1492 2670 3 MP
PP
c8
1492 2670 mt 1427 2631 L
1427 2631 mt 1512 2585 L
1 sg
-66 -57 85 -46 1427 2631 3 MP
PP
c8
1427 2631 mt 1512 2585 L
1512 2585 mt 1446 2528 L
1 sg
-65 129 85 -60 1375 1954 3 MP
PP
c8
1375 1954 mt 1460 1894 L
1460 1894 mt 1395 2023 L
1 sg
85 -60 -66 95 1441 1859 3 MP
PP
c8
1441 1859 mt 1375 1954 L
1375 1954 mt 1460 1894 L
1 sg
85 2 -65 129 1460 1894 3 MP
PP
c8
1460 1894 mt 1395 2023 L
1395 2023 mt 1480 2025 L
1 sg
-65 57 85 -209 1421 2011 3 MP
PP
c8
1421 2011 mt 1506 1802 L
1506 1802 mt 1441 1859 L
1 sg
-65 81 85 2 1395 2023 3 MP
PP
c8
1395 2023 mt 1480 2025 L
1480 2025 mt 1415 2106 L
1 sg
85 -209 -65 -49 1486 2060 3 MP
PP
c8
1486 2060 mt 1421 2011 L
1421 2011 mt 1506 1802 L
1 sg
-65 -39 85 -30 1407 2700 3 MP
PP
c8
1407 2700 mt 1492 2670 L
1492 2670 mt 1427 2631 L
1 sg
85 -30 -65 -34 1472 2734 3 MP
PP
c8
1472 2734 mt 1407 2700 L
1407 2700 mt 1492 2670 L
1 sg
85 -200 -65 -82 1466 2342 3 MP
PP
c8
1466 2342 mt 1401 2260 L
1401 2260 mt 1486 2060 L
1 sg
84 -18 -65 -2 1350 2138 3 MP
PP
c8
1350 2138 mt 1285 2136 L
1285 2136 mt 1369 2118 L
1 sg
-66 -11 85 -9 1350 2138 3 MP
PP
c8
1350 2138 mt 1435 2129 L
1435 2129 mt 1369 2118 L
1 sg
-65 32 85 -2 1330 2108 3 MP
PP
c8
1330 2108 mt 1415 2106 L
1415 2106 mt 1350 2138 L
1 sg
85 -2 -65 85 1395 2023 3 MP
PP
c8
1395 2023 mt 1330 2108 L
1330 2108 mt 1415 2106 L
1 sg
85 -9 -65 32 1415 2106 3 MP
PP
c8
1415 2106 mt 1350 2138 L
1350 2138 mt 1435 2129 L
1 sg
-65 -49 85 -200 1401 2260 3 MP
PP
c8
1401 2260 mt 1486 2060 L
1486 2060 mt 1421 2011 L
1 sg
85 -123 -65 -63 1446 2528 3 MP
PP
c8
1446 2528 mt 1381 2465 L
1381 2465 mt 1466 2342 L
1 sg
-65 -82 85 -123 1381 2465 3 MP
PP
c8
1381 2465 mt 1466 2342 L
1466 2342 mt 1401 2260 L
1 sg
85 -60 -66 -43 1427 2631 3 MP
PP
c8
1427 2631 mt 1361 2588 L
1361 2588 mt 1446 2528 L
1 sg
-65 -63 85 -60 1361 2588 3 MP
PP
c8
1361 2588 mt 1446 2528 L
1446 2528 mt 1381 2465 L
1 sg
85 -28 -65 97 1375 1954 3 MP
PP
c8
1375 1954 mt 1310 2051 L
1310 2051 mt 1395 2023 L
1 sg
-66 95 85 -154 1356 2013 3 MP
PP
c8
1356 2013 mt 1441 1859 L
1441 1859 mt 1375 1954 L
1 sg
85 -154 -65 2 1421 2011 3 MP
PP
c8
1421 2011 mt 1356 2013 L
1356 2013 mt 1441 1859 L
1 sg
85 -33 -65 -36 1407 2700 3 MP
PP
c8
1407 2700 mt 1342 2664 L
1342 2664 mt 1427 2631 L
1 sg
-66 -43 85 -33 1342 2664 3 MP
PP
c8
1342 2664 mt 1427 2631 L
1427 2631 mt 1361 2588 L
1 sg
85 -188 -65 -61 1401 2260 3 MP
PP
c8
1401 2260 mt 1336 2199 L
1336 2199 mt 1421 2011 L
1 sg
85 -18 -65 6 1265 2148 3 MP
PP
c8
1265 2148 mt 1200 2154 L
1200 2154 mt 1285 2136 L
1 sg
-65 -2 85 -10 1265 2148 3 MP
PP
c8
1265 2148 mt 1350 2138 L
1350 2138 mt 1285 2136 L
1 sg
85 -10 -65 40 1330 2108 3 MP
PP
c8
1330 2108 mt 1265 2148 L
1265 2148 mt 1350 2138 L
1 sg
-65 85 85 -28 1310 2051 3 MP
PP
c8
1310 2051 mt 1395 2023 L
1395 2023 mt 1330 2108 L
1 sg
-65 2 85 -188 1336 2199 3 MP
PP
c8
1336 2199 mt 1421 2011 L
1421 2011 mt 1356 2013 L
1 sg
85 -140 -65 -65 1381 2465 3 MP
PP
c8
1381 2465 mt 1316 2400 L
1316 2400 mt 1401 2260 L
1 sg
-65 -61 85 -140 1316 2400 3 MP
PP
c8
1316 2400 mt 1401 2260 L
1401 2260 mt 1336 2199 L
1 sg
-65 -65 85 -76 1296 2541 3 MP
PP
c8
1296 2541 mt 1381 2465 L
1381 2465 mt 1316 2400 L
1 sg
85 -76 -65 -47 1361 2588 3 MP
PP
c8
1361 2588 mt 1296 2541 L
1296 2541 mt 1381 2465 L
1 sg
-65 97 85 -100 1290 2054 3 MP
PP
c8
1290 2054 mt 1375 1954 L
1375 1954 mt 1310 2051 L
1 sg
85 -100 -66 41 1356 2013 3 MP
PP
c8
1356 2013 mt 1290 2054 L
1290 2054 mt 1375 1954 L
1 sg
-65 -47 84 -40 1277 2628 3 MP
PP
c8
1277 2628 mt 1361 2588 L
1361 2588 mt 1296 2541 L
1 sg
84 -40 -65 -36 1342 2664 3 MP
PP
c8
1342 2664 mt 1277 2628 L
1277 2628 mt 1361 2588 L
1 sg
85 -16 -65 73 1310 2051 3 MP
PP
c8
1310 2051 mt 1245 2124 L
1245 2124 mt 1330 2108 L
1 sg
-65 40 85 -16 1245 2124 3 MP
PP
c8
1245 2124 mt 1330 2108 L
1330 2108 mt 1265 2148 L
1 sg
85 -156 -65 -30 1336 2199 3 MP
PP
c8
1336 2199 mt 1271 2169 L
1271 2169 mt 1356 2013 L
1 sg
85 -59 -65 56 1290 2054 3 MP
PP
c8
1290 2054 mt 1225 2110 L
1225 2110 mt 1310 2051 L
1 sg
-65 73 85 -59 1225 2110 3 MP
PP
c8
1225 2110 mt 1310 2051 L
1310 2051 mt 1245 2124 L
1 sg
-66 41 85 -156 1271 2169 3 MP
PP
c8
1271 2169 mt 1356 2013 L
1356 2013 mt 1290 2054 L
1 sg
85 -144 -65 -57 1316 2400 3 MP
PP
c8
1316 2400 mt 1251 2343 L
1251 2343 mt 1336 2199 L
1 sg
-65 -30 85 -144 1251 2343 3 MP
PP
c8
1251 2343 mt 1336 2199 L
1336 2199 mt 1271 2169 L
1 sg
85 -91 -65 -50 1296 2541 3 MP
PP
c8
1296 2541 mt 1231 2491 L
1231 2491 mt 1316 2400 L
1 sg
-65 -57 85 -91 1231 2491 3 MP
PP
c8
1231 2491 mt 1316 2400 L
1316 2400 mt 1251 2343 L
1 sg
-65 -50 85 -48 1211 2589 3 MP
PP
c8
1211 2589 mt 1296 2541 L
1296 2541 mt 1231 2491 L
1 sg
85 -48 -66 -39 1277 2628 3 MP
PP
c8
1277 2628 mt 1211 2589 L
1211 2589 mt 1296 2541 L
1 sg
85 -35 -65 49 1225 2110 3 MP
PP
c8
1225 2110 mt 1160 2159 L
1160 2159 mt 1245 2124 L
1 sg
85 -18 -65 9 1180 2163 3 MP
PP
c8
1180 2163 mt 1115 2172 L
1115 2172 mt 1200 2154 L
1 sg
-65 39 85 -35 1160 2159 3 MP
PP
c8
1160 2159 mt 1245 2124 L
1245 2124 mt 1180 2163 L
1 sg
-65 6 85 -15 1180 2163 3 MP
PP
c8
1180 2163 mt 1265 2148 L
1265 2148 mt 1200 2154 L
1 sg
85 -15 -65 39 1245 2124 3 MP
PP
c8
1245 2124 mt 1180 2163 L
1180 2163 mt 1265 2148 L
1 sg
85 -114 -66 -1 1271 2169 3 MP
PP
c8
1271 2169 mt 1205 2168 L
1205 2168 mt 1290 2054 L
1 sg
-65 56 85 -114 1205 2168 3 MP
PP
c8
1205 2168 mt 1290 2054 L
1290 2054 mt 1225 2110 L
1 sg
-66 -1 85 -132 1186 2301 3 MP
PP
c8
1186 2301 mt 1271 2169 L
1271 2169 mt 1205 2168 L
1 sg
85 -132 -65 -42 1251 2343 3 MP
PP
c8
1251 2343 mt 1186 2301 L
1186 2301 mt 1271 2169 L
1 sg
85 -99 -65 -49 1231 2491 3 MP
PP
c8
1231 2491 mt 1166 2442 L
1166 2442 mt 1251 2343 L
1 sg
-65 -42 85 -99 1166 2442 3 MP
PP
c8
1166 2442 mt 1251 2343 L
1251 2343 mt 1186 2301 L
1 sg
85 -57 -65 -41 1211 2589 3 MP
PP
c8
1211 2589 mt 1146 2548 L
1146 2548 mt 1231 2491 L
1 sg
-65 -49 85 -57 1146 2548 3 MP
PP
c8
1146 2548 mt 1231 2491 L
1231 2491 mt 1166 2442 L
1 sg
-65 9 85 -25 1095 2188 3 MP
PP
c8
1095 2188 mt 1180 2163 L
1180 2163 mt 1115 2172 L
1 sg
85 -25 -65 29 1160 2159 3 MP
PP
c8
1160 2159 mt 1095 2188 L
1095 2188 mt 1180 2163 L
1 sg
-65 49 85 -77 1140 2187 3 MP
PP
c8
1140 2187 mt 1225 2110 L
1225 2110 mt 1160 2159 L
1 sg
85 -77 -65 19 1205 2168 3 MP
PP
c8
1205 2168 mt 1140 2187 L
1140 2187 mt 1225 2110 L
1 sg
84 -109 -65 -24 1186 2301 3 MP
PP
c8
1186 2301 mt 1121 2277 L
1121 2277 mt 1205 2168 L
1 sg
-65 19 84 -109 1121 2277 3 MP
PP
c8
1121 2277 mt 1205 2168 L
1205 2168 mt 1140 2187 L
1 sg
-65 -24 85 -98 1101 2399 3 MP
PP
c8
1101 2399 mt 1186 2301 L
1186 2301 mt 1121 2277 L
1 sg
85 -98 -65 -43 1166 2442 3 MP
PP
c8
1166 2442 mt 1101 2399 L
1101 2399 mt 1186 2301 L
1 sg
-65 -43 85 -64 1081 2506 3 MP
PP
c8
1081 2506 mt 1166 2442 L
1166 2442 mt 1101 2399 L
1 sg
85 -64 -65 -42 1146 2548 3 MP
PP
c8
1146 2548 mt 1081 2506 L
1081 2506 mt 1166 2442 L
1 sg
85 -49 -65 21 1140 2187 3 MP
PP
c8
1140 2187 mt 1075 2208 L
1075 2208 mt 1160 2159 L
1 sg
-65 29 85 -49 1075 2208 3 MP
PP
c8
1075 2208 mt 1160 2159 L
1160 2159 mt 1095 2188 L
1 sg
85 -80 -66 -10 1121 2277 3 MP
PP
c8
1121 2277 mt 1055 2267 L
1055 2267 mt 1140 2187 L
1 sg
-65 21 85 -80 1055 2267 3 MP
PP
c8
1055 2267 mt 1140 2187 L
1140 2187 mt 1075 2208 L
1 sg
85 -87 -65 -35 1101 2399 3 MP
PP
c8
1101 2399 mt 1036 2364 L
1036 2364 mt 1121 2277 L
1 sg
-66 -10 85 -87 1036 2364 3 MP
PP
c8
1036 2364 mt 1121 2277 L
1121 2277 mt 1055 2267 L
1 sg
85 -23 -65 7 1095 2188 3 MP
PP
c8
1095 2188 mt 1030 2195 L
1030 2195 mt 1115 2172 L
1 sg
-65 -35 85 -67 1016 2466 3 MP
PP
c8
1016 2466 mt 1101 2399 L
1101 2399 mt 1036 2364 L
1 sg
85 -67 -65 -40 1081 2506 3 MP
PP
c8
1081 2506 mt 1016 2466 L
1016 2466 mt 1101 2399 L
1 sg
-65 7 85 -34 1010 2222 3 MP
PP
c8
1010 2222 mt 1095 2188 L
1095 2188 mt 1030 2195 L
1 sg
85 -34 -65 14 1075 2208 3 MP
PP
c8
1075 2208 mt 1010 2222 L
1010 2222 mt 1095 2188 L
1 sg
-65 14 85 -57 990 2265 3 MP
PP
c8
 990 2265 mt 1075 2208 L
1075 2208 mt 1010 2222 L
1 sg
85 -57 -65 -2 1055 2267 3 MP
PP
c8
1055 2267 mt  990 2265 L
 990 2265 mt 1075 2208 L
1 sg
-65 -2 85 -72 970 2339 3 MP
PP
c8
 970 2339 mt 1055 2267 L
1055 2267 mt  990 2265 L
1 sg
85 -72 -66 -25 1036 2364 3 MP
PP
c8
1036 2364 mt  970 2339 L
 970 2339 mt 1055 2267 L
1 sg
85 -66 -65 -36 1016 2466 3 MP
PP
c8
1016 2466 mt  951 2430 L
 951 2430 mt 1036 2364 L
1 sg
-66 -25 85 -66 951 2430 3 MP
PP
c8
 951 2430 mt 1036 2364 L
1036 2364 mt  970 2339 L
1 sg
85 -27 -65 0 1010 2222 3 MP
PP
c8
1010 2222 mt  945 2222 L
 945 2222 mt 1030 2195 L
1 sg
-65 0 85 -40 925 2262 3 MP
PP
c8
 925 2262 mt 1010 2222 L
1010 2222 mt  945 2222 L
1 sg
85 -40 -65 -3 990 2265 3 MP
PP
c8
 990 2265 mt  925 2262 L
 925 2262 mt 1010 2222 L
1 sg
85 -56 -65 -18 970 2339 3 MP
PP
c8
 970 2339 mt  905 2321 L
 905 2321 mt  990 2265 L
1 sg
-65 -3 85 -56 905 2321 3 MP
PP
c8
 905 2321 mt  990 2265 L
 990 2265 mt  925 2262 L
1 sg
-65 -18 85 -59 885 2398 3 MP
PP
c8
 885 2398 mt  970 2339 L
 970 2339 mt  905 2321 L
1 sg
85 -59 -66 -32 951 2430 3 MP
PP
c8
 951 2430 mt  885 2398 L
 885 2398 mt  970 2339 L
1 sg
85 -31 -65 -9 925 2262 3 MP
PP
c8
 925 2262 mt  860 2253 L
 860 2253 mt  945 2222 L
1 sg
85 -42 -65 -17 905 2321 3 MP
PP
c8
 905 2321 mt  840 2304 L
 840 2304 mt  925 2262 L
1 sg
-65 -9 85 -42 840 2304 3 MP
PP
c8
 840 2304 mt  925 2262 L
 925 2262 mt  860 2253 L
1 sg
-65 -17 85 -49 820 2370 3 MP
PP
c8
 820 2370 mt  905 2321 L
 905 2321 mt  840 2304 L
1 sg
85 -49 -65 -28 885 2398 3 MP
PP
c8
 885 2398 mt  820 2370 L
 820 2370 mt  905 2321 L
1 sg
85 -33 -65 -18 840 2304 3 MP
PP
c8
 840 2304 mt  775 2286 L
 775 2286 mt  860 2253 L
1 sg
85 -41 -65 -25 820 2370 3 MP
PP
c8
 820 2370 mt  755 2345 L
 755 2345 mt  840 2304 L
1 sg
-65 -18 85 -41 755 2345 3 MP
PP
c8
 755 2345 mt  840 2304 L
 840 2304 mt  775 2286 L
1 sg
85 -34 -65 -25 755 2345 3 MP
PP
c8
 755 2345 mt  690 2320 L
 690 2320 mt  775 2286 L
gr

c8

end %%Color Dict

eplot
%%EndObject

epage
end

showpage

%%Trailer
%%EOF
